{
    "desc": "Config for Portuguese (Portugal) localization and translations",
    "erp": {
        "method": "git",
        "params": {
            "url": "https://gitlab.com/openbravo/product/openbravo",
            "ver": "master"
        }
    },
    "mods": [
        {
            "method": "git",
            "params": {
                "url": "https://gitlab.com/openbravo/product/pmods/org.openbravo.localization.portugal.suite.business",
                "ver": "master"
            },
            "javapackage": "org.openbravo.localization.portugal.suite.business"
        },
        {
            "method": "git",
            "params": {
                "url": "https://gitlab.com/openbravo/product/pmods/org.openbravo.localization.portugal.suite.commerce",
                "ver": "master"
            },
            "javapackage": "org.openbravo.localization.portugal.suite.commerce"
        },
        {
            "method": "git",
            "params": {
                "url": "https://gitlab.com/openbravo/product/pmods/org.openbravo.portugal.regions",
                "ver": "master"
            },
            "javapackage": "org.openbravo.portugal.regions"
        },
        {
            "method": "git",
            "params": {
                "url": "https://gitlab.com/openbravo/product/pmods/org.openbravo.localization.portugal.referencedata.taxes",
                "ver": "master"
            },
            "javapackage": "org.openbravo.localization.portugal.referencedata.taxes"
        },
        {
            "method": "git",
            "params": {
                "url": "https://gitlab.com/openbravo/product/pmods/org.openbravo.retail.pack.pt_PT",
                "ver": "master"
            },
            "javapackage": "org.openbravo.retail.pack.pt_PT"
        },
        {
            "method": "git",
            "params": {
                "url": "https://gitlab.com/openbravo/product/pmods/org.openbravo.mobile.core.pt_PT",
                "ver": "master"
            },
            "javapackage": "org.openbravo.mobile.core.pt_PT"
        },
        {
            "method": "git",
            "params": {
                "url": "https://gitlab.com/openbravo/product/pmods/org.openbravo.retail.posterminal.pt_PT",
                "ver": "master"
            },
            "javapackage": "org.openbravo.retail.posterminal.pt_PT"
        },
        {
            "method": "git",
            "params": {
                "url": "https://gitlab.com/openbravo/product/pmods/org.openbravo.retail.discounts.pt_PT",
                "ver": "master"
            },
            "javapackage": "org.openbravo.retail.discounts.pt_PT"
        },
        {
            "method": "git",
            "params": {
                "url": "https://gitlab.com/openbravo/product/pmods/org.openbravo.retail.config.pt_PT",
                "ver": "master"
            },
            "javapackage": "org.openbravo.retail.config.pt_PT"
        },
        {
            "method": "git",
            "params": {
                "url": "https://gitlab.com/openbravo/product/pmods/org.openbravo.retail.returns.pt_PT",
                "ver": "master"
            },
            "javapackage": "org.openbravo.retail.returns.pt_PT"
        },
        {
            "method": "git",
            "params": {
                "url": "https://gitlab.com/openbravo/product/pmods/org.openbravo.retail.giftcards.pt_PT",
                "ver": "master"
            },
            "javapackage": "org.openbravo.retail.giftcards.pt_PT"
        },
        {
            "method": "git",
            "params": {
                "url": "https://gitlab.com/openbravo/product/mods/org.openbravo.distributionorder.pt_PT",
                "ver": "master"
            },
            "javapackage": "org.openbravo.distributionorder.pt_PT"
        },
        {
            "method": "git",
            "params": {
                "url": "https://gitlab.com/openbravo/product/pmods/org.openbravo.warehouse.advancedwarehouseoperations.pack.pt_PT",
                "ver": "master"
            },
            "javapackage": "org.openbravo.warehouse.advancedwarehouseoperations.pack.pt_PT"
        },
        {
            "method": "git",
            "params": {
                "url": "https://gitlab.com/openbravo/product/pmods/org.openbravo.warehouse.advancedwarehouseoperations.distributionorders.pt_PT",
                "ver": "master"
            },
            "javapackage": "org.openbravo.warehouse.advancedwarehouseoperations.distributionorders.pt_PT"
        },
        {
            "method": "git",
            "params": {
                "url": "https://gitlab.com/openbravo/product/pmods/org.openbravo.warehouse.advancedwarehouseoperations.pt_PT",
                "ver": "master"
            },
            "javapackage": "org.openbravo.warehouse.advancedwarehouseoperations.pt_PT"
        },
        {
            "method": "git",
            "params": {
                "url": "https://gitlab.com/openbravo/product/pmods/org.openbravo.warehouse.advancedwarehouseoperations.printing.bartender.pt_PT",
                "ver": "master"
            },
            "javapackage": "org.openbravo.warehouse.advancedwarehouseoperations.printing.bartender.pt_PT"
        },
        {
            "method": "git",
            "params": {
                "url": "https://gitlab.com/openbravo/product/pmods/org.openbravo.warehouse.advancedwarehouseoperations.retailconnector.pt_PT",
                "ver": "master"
            },
            "javapackage": "org.openbravo.warehouse.advancedwarehouseoperations.retailconnector.pt_PT"
        },
        {
            "method": "git",
            "params": {
                "url": "https://gitlab.com/openbravo/product/pmods/org.openbravo.warehouse.advancedwarehouseoperations.batchwavepicking.pt_PT",
                "ver": "master"
            },
            "javapackage": "org.openbravo.warehouse.advancedwarehouseoperations.batchwavepicking.pt_PT"
        },
        {
            "method": "git",
            "params": {
                "url": "https://gitlab.com/openbravo/product/pmods/org.openbravo.warehouse.advancedwarehouseoperations.operatorloadbalancing.pt_PT",
                "ver": "master"
            },
            "javapackage": "org.openbravo.warehouse.advancedwarehouseoperations.operatorloadbalancing.pt_PT"
        },
        {
            "method": "git",
            "params": {
                "url": "https://gitlab.com/openbravo/product/pmods/org.openbravo.retail.simpinvoicethreshold.pt_PT",
                "ver": "master"
            },
            "javapackage": "org.openbravo.retail.simpinvoicethreshold.pt_PT"
        },
        {
            "method": "git",
            "params": {
                "url": "https://gitlab.com/openbravo/product/pmods/org.openbravo.localization.portugal.fiscalization",
                "ver": "master"
            },
            "javapackage": "org.openbravo.localization.portugal.fiscalization"
        },
        {
            "method": "git",
            "params": {
                "url": "https://gitlab.com/openbravo/devel/pmods/org.openbravo.events.fiscalization",
                "ver": "fix/53323-simp-invoice"
            },
            "javapackage": "org.openbravo.events.fiscalization"
        }
	
    ],
    "deps": [
        {
            "method": "git",
            "params": {
                "url": "https://gitlab.com/openbravo/product/pmods/org.openbravo.mobile.core",
                "ver": "master"
            },
            "javapackage": "org.openbravo.mobile.core"
        },
        {
            "method": "git",
            "params": {
                "url": "https://gitlab.com/openbravo/product/pmods/org.openbravo.retail.posterminal",
                "ver": "master"
            },
            "javapackage": "org.openbravo.retail.posterminal"
        },
        {
            "method": "git",
            "params": {
                "url": "https://gitlab.com/openbravo/product/pmods/org.openbravo.retail.discounts",
                "ver": "master"
            },
            "javapackage": "org.openbravo.retail.discounts"
        },
        {
            "method": "git",
            "params": {
                "url": "https://gitlab.com/openbravo/product/pmods/org.openbravo.retail.returns",
                "ver": "master"
            },
            "javapackage": "org.openbravo.retail.returns"
        },
        {
            "method": "git",
            "params": {
                "url": "https://gitlab.com/openbravo/product/pmods/org.openbravo.retail.config",
                "ver": "master"
            },
            "javapackage": "org.openbravo.retail.config"
        },
        {
            "method": "git",
            "params": {
                "url": "https://gitlab.com/openbravo/product/pmods/org.openbravo.retail.giftcards",
                "ver": "master"
            },
            "javapackage": "org.openbravo.retail.giftcards"
        },
        {
            "method": "git",
            "params": {
                "url": "https://gitlab.com/openbravo/product/pmods/org.openbravo.retail.sampledata",
                "ver": "master"
            },
            "javapackage": "org.openbravo.retail.sampledata"
        },
        {
            "method": "git",
            "params": {
                "url": "https://gitlab.com/openbravo/product/pmods/org.openbravo.retail.poshwmanager",
                "ver": "master"
            },
            "javapackage": "org.openbravo.retail.poshwmanager"
        },
        {
            "method": "git",
            "params": {
                "url": "https://gitlab.com/openbravo/product/pmods/org.openbravo.retail.pack",
                "ver": "master"
            },
            "javapackage": "org.openbravo.retail.pack"
        },
        {
            "method": "git",
            "params": {
                "url": "https://gitlab.com/openbravo/product/pmods/org.openbravo.warehouse.advancedwarehouseoperations.template",
                "ver": "master"
            },
            "javapackage": "org.openbravo.warehouse.advancedwarehouseoperations.template"
        },
        {
            "method": "git",
            "params": {
                "url": "https://gitlab.com/openbravo/ci/modules/org.openbravo.warehouse.advancedwarehouseoperations.sampledata",
                "ver": "master"
            },
            "javapackage": "org.openbravo.warehouse.advancedwarehouseoperations.sampledata"
        },
        {
            "method": "git",
            "params": {
                "url": "https://gitlab.com/openbravo/product/pmods/org.openbravo.warehouse.advancedwarehouseoperations.printing.bartender",
                "ver": "master"
            },
            "javapackage": "org.openbravo.warehouse.advancedwarehouseoperations.printing.bartender"
        },
        {
            "method": "git",
            "params": {
                "url": "https://gitlab.com/openbravo/product/pmods/org.openbravo.warehouse.advancedwarehouseoperations.distributionorders",
                "ver": "master"
            },
            "javapackage": "org.openbravo.warehouse.advancedwarehouseoperations.distributionorders"
        },
        {
            "method": "git",
            "params": {
                "url": "https://gitlab.com/openbravo/product/pmods/org.openbravo.warehouse.advancedwarehouseoperations",
                "ver": "master"
            },
            "javapackage": "org.openbravo.warehouse.advancedwarehouseoperations"
        },
        {
            "method": "git",
            "params": {
                "url": "https://gitlab.com/openbravo/product/pmods/org.openbravo.warehouse.advancedwarehouseoperations.retailconnector",
                "ver": "master"
            },
            "javapackage": "org.openbravo.warehouse.advancedwarehouseoperations.retailconnector"
        },
        {
            "method": "git",
            "params": {
                "url": "https://gitlab.com/openbravo/product/pmods/org.openbravo.warehouse.advancedwarehouseoperations.batchwavepicking",
                "ver": "master"
            },
            "javapackage": "org.openbravo.warehouse.advancedwarehouseoperations.batchwavepicking"
        },
        {
            "method": "git",
            "params": {
                "url": "https://gitlab.com/openbravo/product/pmods/org.openbravo.warehouse.advancedwarehouseoperations.operatorloadbalancing",
                "ver": "master"
            },
            "javapackage": "org.openbravo.warehouse.advancedwarehouseoperations.operatorloadbalancing"
        },
        {
            "method": "git",
            "params": {
                "url": "https://gitlab.com/openbravo/product/pmods/org.openbravo.warehouse.advancedwarehouseoperations.selfreplenishment",
                "ver": "master"
            },
            "javapackage": "org.openbravo.warehouse.advancedwarehouseoperations.selfreplenishment"
        },
        {
            "method": "git",
            "params": {
                "url": "https://gitlab.com/openbravo/product/mods/org.openbravo.distributionorder",
                "ver": "master"
            },
            "javapackage": "org.openbravo.distributionorder"
        },
        {
            "method": "git",
            "params": {
                "url": "https://gitlab.com/openbravo/product/mods/org.openbravo.utility.opencsv",
                "ver": "master"
            },
            "javapackage": "org.openbravo.utility.opencsv"
        },
        {
            "method": "git",
            "params": {
                "url": "https://gitlab.com/openbravo/product/pmods/org.openbravo.retail.simpinvoicethreshold",
                "ver": "master"
            },
            "javapackage": "org.openbravo.retail.simpinvoicethreshold"
        },
        {
          "method": "git",
          "params": {
              "url": "https://gitlab.com/openbravo/product/pmods/org.openbravo.retail.copystore",
              "ver": "master"
          },
          "javapackage": "org.openbravo.retail.copystore"
        },
        {
          "method": "git",
          "params": {
              "url": "https://gitlab.com/openbravo/product/pmods/org.openbravo.copyprocess",
              "ver": "master"
          },
          "javapackage": "org.openbravo.copyprocess"
        },
        {
            "method": "git",
            "params": {
                "url": "https://gitlab.com/openbravo/product/pmods/org.openbravo.events.core",
                "ver": "master"
            },
            "javapackage": "org.openbravo.events.core"
        },
        {
            "method": "git",
            "params": {
                "url": "https://gitlab.com/openbravo/product/pmods/org.openbravo.events.client",
                "ver": "master"
            },
            "javapackage": "org.openbravo.events.client"
        }
    ]
}
