{
  "desc": "Config for platform base",
  "erp": {
    "method": "git",
    "params": {
      "url": "https://gitlab.com/openbravo/product/openbravo",
      "ver": "master"
    }
  },
  "mods": [
    {
      "method": "git",
      "params": {
        "url": "https://gitlab.com/openbravo/product/pmods/org.openbravo.integration.google.calendar",
        "ver": "master"
      },
      "javapackage": "org.openbravo.integration.google.calendar"
    },
    {
      "method": "git",
      "params": {
        "url": "https://gitlab.com/openbravo/product/mods/org.openbravo.reporting.charts",
        "ver": "master"
      },
      "javapackage": "org.openbravo.reporting.charts"
    },
    {
      "method": "git",
      "params": {
        "url": "https://gitlab.com/openbravo/product/pmods/org.openbravo.retail.camerabarcodescanner",
        "ver": "master"
      },
      "javapackage": "org.openbravo.retail.camerabarcodescanner"
    },
    {
      "method": "git",
      "params": {
        "url": "https://gitlab.com/openbravo/product/pmods/org.openbravo.retail.camerabarcodescanner.posterminal",
        "ver": "master"
      },
      "javapackage": "org.openbravo.retail.camerabarcodescanner.posterminal"
    },
    {
      "method": "git",
      "params": {
        "url": "https://gitlab.com/openbravo/product/pmods/org.openbravo.service.jsexecutor",
        "ver": "master"
      },
      "javapackage": "org.openbravo.service.jsexecutor"
    },
    {
      "method": "git",
      "params": {
        "url": "https://gitlab.com/openbravo/ci/modules/org.openbravo.service.external.integration.tests",
        "ver": "master"
      },
      "javapackage": "org.openbravo.service.external.integration.tests"
    },
    {
      "method": "git",
      "params": {
        "url": "https://gitlab.com/openbravo/product/mods/org.openbravo.service.reporting.barcode",
        "ver": "master"
      },
      "javapackage": "org.openbravo.service.reporting.barcode"
    },
    {
      "method": "git",
      "params": {
        "url": "https://gitlab.com/openbravo/product/mods/org.openbravo.utility.commons.csv",
        "ver": "master"
      },
      "javapackage": "org.openbravo.utility.commons.csv"
    },
    {
      "method": "git",
      "params": {
        "url": "https://gitlab.com/openbravo/product/mods/org.openbravo.utility.draganddropselector3lists",
        "ver": "master"
      },
      "javapackage": "org.openbravo.utility.draganddropselector3lists"
    },
    {
      "method": "git",
      "params": {
        "url": "https://gitlab.com/openbravo/product/mods/org.openbravo.utility.draganddropselector3listsimplementation",
        "ver": "master"
      },
      "javapackage": "org.openbravo.utility.draganddropselector3listsimplementation"
    },
    {
      "method": "git",
      "params": {
        "url": "https://gitlab.com/openbravo/product/mods/org.openbravo.utility.hqlquerytool",
        "ver": "master"
      },
      "javapackage": "org.openbravo.utility.hqlquerytool"
    },
    {
      "method": "git",
      "params": {
        "url": "https://gitlab.com/openbravo/product/mods/org.openbravo.utility.opencsv",
        "ver": "master"
      },
      "javapackage": "org.openbravo.utility.opencsv"
    },
    {
      "method": "git",
      "params": {
        "url": "https://gitlab.com/openbravo/product/pmods/org.openbravo.api",
        "ver": "master"
      },
      "javapackage": "org.openbravo.api"
    },
    {
      "method": "git",
      "params": {
        "url": "https://gitlab.com/openbravo/product/pmods/org.openbravo.logclient.externalization",
        "ver": "master"
      },
      "javapackage": "org.openbravo.logclient.externalization"
    }
  ],
  "deps": [
    {
      "method": "git",
      "params": {
        "url": "https://gitlab.com/openbravo/product/pmods/org.openbravo.integration.google",
        "ver": "master"
      },
      "javapackage": "org.openbravo.integration.google"
    },
    {
      "method": "git",
      "params": {
        "url": "https://gitlab.com/openbravo/product/pmods/org.openbravo.mobile.core",
        "ver": "master"
      },
      "javapackage": "org.openbravo.mobile.core"
    },
    {
      "method": "git",
      "params": {
        "url": "https://gitlab.com/openbravo/product/pmods/org.openbravo.retail.pack",
        "ver": "master"
      },
      "javapackage": "org.openbravo.retail.pack"
    },
    {
      "method": "git",
      "params": {
        "url": "https://gitlab.com/openbravo/product/pmods/org.openbravo.retail.config",
        "ver": "master"
      },
      "javapackage": "org.openbravo.retail.config"
    },
    {
      "method": "git",
      "params": {
        "url": "https://gitlab.com/openbravo/product/pmods/org.openbravo.retail.posterminal",
        "ver": "master"
      },
      "javapackage": "org.openbravo.retail.posterminal"
    },
    {
      "method": "git",
      "params": {
        "url": "https://gitlab.com/openbravo/product/pmods/org.openbravo.retail.poshwmanager",
        "ver": "master"
      },
      "javapackage": "org.openbravo.retail.poshwmanager"
    },
    {
      "method": "git",
      "params": {
        "url": "https://gitlab.com/openbravo/product/pmods/org.openbravo.retail.discounts",
        "ver": "master"
      },
      "javapackage": "org.openbravo.retail.discounts"
    },
    {
      "method": "git",
      "params": {
        "url": "https://gitlab.com/openbravo/product/pmods/org.openbravo.retail.sampledata",
        "ver": "master"
      },
      "javapackage": "org.openbravo.retail.sampledata"
    },
    {
      "method": "git",
      "params": {
        "url": "https://gitlab.com/openbravo/product/pmods/org.openbravo.retail.returns",
        "ver": "master"
      },
      "javapackage": "org.openbravo.retail.returns"
    },
    {
      "method": "git",
      "params": {
        "url": "https://gitlab.com/openbravo/product/pmods/org.openbravo.externaldata.integration",
        "ver": "master"
      },
      "javapackage": "org.openbravo.externaldata.integration"
    },
    {
      "method": "git",
      "params": {
        "url": "https://gitlab.com/openbravo/product/pmods/org.openbravo.service.external.integration",
        "ver": "master"
      },
      "javapackage": "org.openbravo.service.external.integration"
    },
    {
      "method": "git",
      "params": {
        "url": "https://gitlab.com/openbravo/product/pmods/org.openbravo.service.openapi",
        "ver": "master"
      },
      "javapackage": "org.openbravo.service.openapi"
    },
    {
      "method": "git",
      "params": {
        "url": "https://gitlab.com/openbravo/product/pmods/org.openbravo.events.core",
        "ver": "master"
      },
      "javapackage": "org.openbravo.events.core"
    }, 
    {
      "method": "git",
      "params": {
        "url": "https://gitlab.com/openbravo/product/pmods/org.openbravo.database.anonymization",
        "ver": "master" 
      },
      "javapackage": "org.openbravo.database.anonymization"
    }
  ]
}
