{
  "desc": "Config for omni wms job",
  "erp": {
    "method": "git",
    "params": {
      "url": "https://gitlab.com/openbravo/product/openbravo",
      "ver": "master"
    }
  },
  "automation":[
    {
      "javapackage":"mobile-test",
      "method":"git",
      "params":
      {
        "url":"https://gitlab.com/openbravo/ci/mobile-test",
        "ver":"master"
        }
    }
  ],
  "mods": [
    {
      "method": "git",
      "params": {
        "url": "https://gitlab.com/openbravo/product/mods/org.openbravo.distributionorder",
        "ver": "master"
      },
      "javapackage": "org.openbravo.distributionorder"
    },
    {
      "method": "git",
      "params": {
        "url": "https://gitlab.com/openbravo/product/mods/org.openbravo.distributionorder.es_ES",
        "ver": "master"
      },
      "javapackage": "org.openbravo.distributionorder.es_ES"
    },
    {
      "method": "git",
      "params": {
        "url": "https://gitlab.com/openbravo/product/pmods/org.openbravo.materialmgmt.catalog",
        "ver": "master"
      },
      "javapackage": "org.openbravo.materialmgmt.catalog"
    },
    {
      "method": "git",
      "params": {
        "url": "https://gitlab.com/openbravo/product/pmods/org.openbravo.materialmgmt.catalog.es_ES",
        "ver": "master"
      },
      "javapackage": "org.openbravo.materialmgmt.catalog.es_ES"
    },
    {
      "method": "git",
      "params": {
        "url": "https://gitlab.com/openbravo/product/pmods/org.openbravo.materialmgmt.freightmgmt",
        "ver": "master"
      },
      "javapackage": "org.openbravo.materialmgmt.freightmgmt"
    },
    {
      "method": "git",
      "params": {
        "url": "https://gitlab.com/openbravo/product/pmods/org.openbravo.materialmgmt.freightmgmt.es_ES",
        "ver": "master"
      },
      "javapackage": "org.openbravo.materialmgmt.freightmgmt.es_ES"
    },
    {
      "method": "git",
      "params": {
        "url": "https://gitlab.com/openbravo/product/pmods/org.openbravo.retail.deliverymodes.awo",
        "ver": "master"
      },
      "javapackage": "org.openbravo.retail.deliverymodes.awo"
    },
    {
      "method": "git",
      "params": {
        "url": "https://gitlab.com/openbravo/devel/pmods/org.openbravo.warehouse.advancedwarehouseoperations",
        "ver": "fr/53325"
      },
      "javapackage": "org.openbravo.warehouse.advancedwarehouseoperations"
    },
    {
      "method": "git",
      "params": {
        "url": "https://gitlab.com/openbravo/product/pmods/org.openbravo.warehouse.advancedwarehouseoperations.batchwavepicking",
        "ver": "master"
      },
      "javapackage": "org.openbravo.warehouse.advancedwarehouseoperations.batchwavepicking"
    },
    {
      "method": "git",
      "params": {
        "url": "https://gitlab.com/openbravo/product/pmods/org.openbravo.warehouse.advancedwarehouseoperations.batchwaveretailconnector",
        "ver": "master"
      },
      "javapackage": "org.openbravo.warehouse.advancedwarehouseoperations.batchwaveretailconnector"
    },
    {
      "method": "git",
      "params": {
        "url": "https://gitlab.com/openbravo/devel/pmods/org.openbravo.warehouse.advancedwarehouseoperations.distributionorders",
        "ver": "fr/53325"
      },
      "javapackage": "org.openbravo.warehouse.advancedwarehouseoperations.distributionorders"
    },
    {
      "method": "git",
      "params": {
        "url": "https://gitlab.com/openbravo/product/pmods/org.openbravo.warehouse.advancedwarehouseoperations.distributionorders.es_ES",
        "ver": "master"
      },
      "javapackage": "org.openbravo.warehouse.advancedwarehouseoperations.distributionorders.es_ES"
    },
    {
      "method": "git",
      "params": {
        "url": "https://gitlab.com/openbravo/product/pmods/org.openbravo.warehouse.advancedwarehouseoperations.edl",
        "ver": "master"
      },
      "javapackage": "org.openbravo.warehouse.advancedwarehouseoperations.edl"
    },
    {
      "method": "git",
      "params": {
        "url": "https://gitlab.com/openbravo/product/pmods/org.openbravo.warehouse.advancedwarehouseoperations.es_ES",
        "ver": "master"
      },
      "javapackage": "org.openbravo.warehouse.advancedwarehouseoperations.es_ES"
    },
    {
      "method": "git",
      "params": {
        "url": "https://gitlab.com/openbravo/product/pmods/org.openbravo.warehouse.advancedwarehouseoperations.operatorloadbalancing",
        "ver": "master"
      },
      "javapackage": "org.openbravo.warehouse.advancedwarehouseoperations.operatorloadbalancing"
    },
    {
      "method": "git",
      "params": {
        "url": "https://gitlab.com/openbravo/product/pmods/org.openbravo.warehouse.advancedwarehouseoperations.pack",
        "ver": "master"
      },
      "javapackage": "org.openbravo.warehouse.advancedwarehouseoperations.pack"
    },
    {
      "method": "git",
      "params": {
        "url": "https://gitlab.com/openbravo/product/pmods/org.openbravo.warehouse.advancedwarehouseoperations.printing.bartender",
        "ver": "master"
      },
      "javapackage": "org.openbravo.warehouse.advancedwarehouseoperations.printing.bartender"
    },
    {
      "method": "git",
      "params": {
        "url": "https://gitlab.com/openbravo/product/pmods/org.openbravo.warehouse.advancedwarehouseoperations.printing.bartender.es_ES",
        "ver": "master"
      },
      "javapackage": "org.openbravo.warehouse.advancedwarehouseoperations.printing.bartender.es_ES"
    },
    {
      "method": "git",
      "params": {
        "url": "https://gitlab.com/openbravo/product/pmods/org.openbravo.warehouse.advancedwarehouseoperations.retailconnector",
        "ver": "master"
      },
      "javapackage": "org.openbravo.warehouse.advancedwarehouseoperations.retailconnector"
    },
    {
      "method": "git",
      "params": {
        "url": "https://gitlab.com/openbravo/product/pmods/org.openbravo.warehouse.advancedwarehouseoperations.retailconnector.es_ES",
        "ver": "master"
      },
      "javapackage": "org.openbravo.warehouse.advancedwarehouseoperations.retailconnector.es_ES"
    },
    {
      "method": "git",
      "params": {
        "url": "https://gitlab.com/openbravo/product/pmods/org.openbravo.warehouse.advancedwarehouseoperations.selfreplenishment",
        "ver": "master"
      },
      "javapackage": "org.openbravo.warehouse.advancedwarehouseoperations.selfreplenishment"
    },
    {
      "method": "git",
      "params": {
        "url": "https://gitlab.com/openbravo/product/pmods/org.openbravo.warehouse.advancedwarehouseoperations.template",
        "ver": "master"
      },
      "javapackage": "org.openbravo.warehouse.advancedwarehouseoperations.template"
    },
    {
      "method": "git",
      "params": {
        "url": "https://gitlab.com/openbravo/product/pmods/org.openbravo.warehouse.advancedwarehouseoperations.api",
        "ver": "master"
      },
      "javapackage": "org.openbravo.warehouse.advancedwarehouseoperations.api"
    },
    {
      "method": "git",
      "params": {
        "url": "https://gitlab.com/openbravo/product/pmods/org.openbravo.distributionorder.api",
        "ver": "master"
      },
      "javapackage": "org.openbravo.distributionorder.api"
    },
    {
      "method": "git",
      "params": {
        "url": "https://gitlab.com/openbravo/ci/modules/org.openbravo.warehouse.advancedwarehouseoperations.sampledata",
        "ver": "master"
      },
      "javapackage": "org.openbravo.warehouse.advancedwarehouseoperations.sampledata"
    },
    {
      "method": "git",
      "params": {
        "url": "https://gitlab.com/openbravo/ci/modules/org.openbravo.warehouse.advancedwarehouseoperations.testingutils",
        "ver": "master"
      },
      "javapackage": "org.openbravo.warehouse.advancedwarehouseoperations.testingutils"
    },
    {
      "method": "git",
      "params": {
        "url": "https://gitlab.com/openbravo/product/pmods/org.openbravo.copyprocess.advancedwarehouseoperations",
        "ver": "master"
      },
      "javapackage": "org.openbravo.copyprocess.advancedwarehouseoperations"
    }
  ],
  "deps": [
    {
      "method": "git",
      "params": {
        "url": "https://gitlab.com/openbravo/product/pmods/org.openbravo.mobile.core",
        "ver": "master"
      },
      "javapackage": "org.openbravo.mobile.core"
    },
    {
      "method": "git",
      "params": {
        "url": "https://gitlab.com/openbravo/product/pmods/org.openbravo.retail.pack",
        "ver": "master"
      },
      "javapackage": "org.openbravo.retail.pack"
    },
    {
      "method": "git",
      "params": {
        "url": "https://gitlab.com/openbravo/product/pmods/org.openbravo.retail.config",
        "ver": "master"
      },
      "javapackage": "org.openbravo.retail.config"
    },
    {
      "method": "git",
      "params": {
        "url": "https://gitlab.com/openbravo/product/pmods/org.openbravo.retail.posterminal",
        "ver": "master"
      },
      "javapackage": "org.openbravo.retail.posterminal"
    },
    {
      "method": "git",
      "params": {
        "url": "https://gitlab.com/openbravo/product/pmods/org.openbravo.retail.poshwmanager",
        "ver": "master"
      },
      "javapackage": "org.openbravo.retail.poshwmanager"
    },
    {
      "method": "git",
      "params": {
        "url": "https://gitlab.com/openbravo/product/pmods/org.openbravo.retail.discounts",
        "ver": "master"
      },
      "javapackage": "org.openbravo.retail.discounts"
    },
    {
      "method": "git",
      "params": {
        "url": "https://gitlab.com/openbravo/product/pmods/org.openbravo.retail.sampledata",
        "ver": "master"
      },
      "javapackage": "org.openbravo.retail.sampledata"
    },
    {
      "method": "git",
      "params": {
        "url": "https://gitlab.com/openbravo/product/pmods/org.openbravo.retail.returns",
        "ver": "master"
      },
      "javapackage": "org.openbravo.retail.returns"
    },
    {
      "method": "git",
      "params": {
        "url": "https://gitlab.com/openbravo/product/pmods/org.openbravo.service.external.integration",
        "ver": "master"
      },
      "javapackage": "org.openbravo.service.external.integration"
    },
    {
      "method": "git",
      "params": {
        "url": "https://gitlab.com/openbravo/product/pmods/org.openbravo.externaldata.integration",
        "ver": "master"
      },
      "javapackage": "org.openbravo.externaldata.integration"
    },
    {
      "method": "git",
      "params": {
        "url": "https://gitlab.com/openbravo/product/mods/org.openbravo.utility.opencsv",
        "ver": "master"
      },
      "javapackage": "org.openbravo.utility.opencsv"
    },
    {
      "method": "git",
      "params": {
        "url": "https://gitlab.com/openbravo/product/pmods/org.openbravo.api",
        "ver": "master"
      },
      "javapackage": "org.openbravo.api"
    },
    {
      "method": "git",
      "params": {
          "url": "https://gitlab.com/openbravo/product/pmods/org.openbravo.events.core",
          "ver": "master"
      },
      "javapackage": "org.openbravo.events.core"
    },
    {
      "method": "git",
      "params": {
          "url": "https://gitlab.com/openbravo/product/pmods/org.openbravo.service.openapi",
          "ver": "master"
      },
      "javapackage": "org.openbravo.service.openapi"
    },
    {
      "method": "git",
      "params": {
          "url": "https://gitlab.com/openbravo/product/pmods/org.openbravo.copyprocess",
          "ver": "master"
      },
      "javapackage": "org.openbravo.copyprocess"
    }
  ]
}
