{
    "desc": "Config for new pos2 with addon modules",
    "erp": {
        "method": "git",
        "params": {
            "url": "https://gitlab.com/openbravo/product/openbravo",
            "ver": "master"
        }
    },
    "mods": [{
            "method": "git",
            "params": {
                "url": "https://gitlab.com/openbravo/devel/pmods/org.openbravo.pos2",
                "ver": "fr/51905"
            },
            "javapackage": "org.openbravo.pos2"
        },
        {
            "method": "git",
            "params": {
                "url": "https://gitlab.com/openbravo/product/pmods/org.openbravo.pos2.sampledata",
                "ver": "master"
            },
            "javapackage": "org.openbravo.pos2.sampledata"
        },
        {
            "method": "git",
            "params": {
                "url": "https://gitlab.com/openbravo/product/pmods/org.openbravo.core2",
                "ver": "master"
            },
            "javapackage": "org.openbravo.core2"
        },
        {
            "method": "git",
            "params": {
                "url": "https://gitlab.com/openbravo/product/pmods/org.openbravo.pos2.api",
                "ver": "master"
            },
            "javapackage": "org.openbravo.pos2.api"
        },
        {
            "method": "git",
            "params": {
                "url": "https://gitlab.com/openbravo/product/pmods/org.openbravo.pos2.restaurant",
                "ver": "master"
            },
            "javapackage": "org.openbravo.pos2.restaurant"
        },
        {
            "method": "git",
            "params": {
                "url": "https://gitlab.com/openbravo/product/pmods/org.openbravo.retail.api",
                "ver": "master"
            },
            "javapackage": "org.openbravo.retail.api"
        },
        {
            "method": "git",
            "params": {
                "url": "https://gitlab.com/openbravo/product/pmods/org.openbravo.pos2.restaurant.sampledata",
                "ver": "master"
            },
            "javapackage": "org.openbravo.pos2.restaurant.sampledata"
        },
		{
            "method": "git",
            "params": {
                "url": "https://gitlab.com/openbravo/product/pmods/org.openbravo.pos2.detailedstock",
                "ver": "master"
            },
            "javapackage": "org.openbravo.pos2.detailedstock"
        },
		{
            "method": "git",
            "params": {
                "url": "https://gitlab.com/openbravo/product/pmods/org.openbravo.pos2.detailedstock.api",
                "ver": "master"
            },
            "javapackage": "org.openbravo.pos2.detailedstock.api"
        },
        {
            "method": "git",
            "params": {
                "url": "https://gitlab.com/openbravo/product/pmods/org.openbravo.retail.giftcards",
                "ver": "master"
            },
            "javapackage": "org.openbravo.retail.giftcards"
        },
        {
            "method": "git",
            "params": {
                "url": "https://gitlab.com/openbravo/ci/modules/org.openbravo.retail.giftcards.pos2-sampledata",
                "ver": "master"
            },
            "javapackage": "org.openbravo.retail.giftcards.pos2-sampledata"
        },
        {
            "method": "git",
            "params": {
                "url": "https://gitlab.com/openbravo/product/pmods/org.openbravo.retail.asyncpayprovider",
                "ver": "master"
            },
            "javapackage": "org.openbravo.retail.asyncpayprovider"
        },
        {
            "method": "git",
            "params": {
                "url": "https://gitlab.com/openbravo/product/pmods/org.openbravo.retail.axisc3",
                "ver": "master"
            },
            "javapackage": "org.openbravo.retail.axisc3"
        },
        {
            "method": "git",
            "params": {
                "url": "https://gitlab.com/openbravo/ci/modules/org.openbravo.certification.france.dev",
                "ver": "master"
            },
            "javapackage": "org.openbravo.certification.france"
        },
        {
            "method": "git",
            "params": {
                "url": "https://gitlab.com/openbravo/ci/modules/org.openbravo.certification.france.testing",
                "ver": "master"
            },
            "javapackage": "org.openbravo.certification.france.testing"
        },
        {
            "method": "git",
            "params": {
                "url": "https://gitlab.com/openbravo/product/pmods/org.openbravo.pos2.marketingsurvey",
                "ver": "master"
            },
            "javapackage": "org.openbravo.pos2.marketingsurvey"
        },
        {
            "method": "git",
            "params": {
                "url": "https://gitlab.com/openbravo/product/pmods/org.openbravo.pos2.marketingsurvey.sampledata",
                "ver": "master"
            },
            "javapackage": "org.openbravo.pos2.marketingsurvey.sampledata"
        },
        {
            "method": "git",
            "params": {
                "url": "https://gitlab.com/openbravo/product/pmods/org.openbravo.pos2.allergens",
                "ver": "master"
            },
            "javapackage": "org.openbravo.pos2.allergens"
        },
        {
            "method": "git",
            "params": {
                "url": "https://gitlab.com/openbravo/product/pmods/org.openbravo.multiupc",
                "ver": "master"
            },
            "javapackage": "org.openbravo.multiupc"
        },
        {
            "method": "git",
            "params": {
                "url": "https://gitlab.com/openbravo/product/pmods/org.openbravo.retail.multiupc",
                "ver": "master"
            },
            "javapackage": "org.openbravo.retail.multiupc"
        },
        {
            "method": "git",
            "params": {
                "url": "https://gitlab.com/openbravo/product/pmods/org.openbravo.commercialoperations",
                "ver": "master"
            },
            "javapackage": "org.openbravo.commercialoperations"
        },
        {
            "method": "git",
            "params": {
                "url": "https://gitlab.com/openbravo/product/pmods/org.openbravo.commercialoperations.api",
                "ver": "master"
            },
            "javapackage": "org.openbravo.commercialoperations.api"
        },
        {
            "method": "git",
            "params": {
                "url": "https://gitlab.com/openbravo/product/pmods/org.openbravo.core2.fr_FR",
                "ver": "master"
            },
            "javapackage": "org.openbravo.core2.fr_FR"
        },
        {
            "method": "git",
            "params": {
                "url": "https://gitlab.com/openbravo/product/pmods/org.openbravo.pos2.fr_FR",
                "ver": "master"
            },
            "javapackage": "org.openbravo.pos2.fr_FR"
        },
        {
            "method": "git",
            "params": {
                "url": "https://gitlab.com/openbravo/product/pmods/org.openbravo.pos2.restaurant.fr_FR",
                "ver": "master"
            },
            "javapackage": "org.openbravo.pos2.restaurant.fr_FR"
        },
        {
            "method": "git",
            "params": {
                "url": "https://gitlab.com/openbravo/product/pmods/org.openbravo.pos2.marketingsurvey.fr_FR",
                "ver": "master"
            },
            "javapackage": "org.openbravo.pos2.marketingsurvey.fr_FR"
        },
        {
            "method": "git",
            "params": {
                "url": "https://gitlab.com/openbravo/product/pmods/org.openbravo.pos2.allergens.fr_FR",
                "ver": "master"
            },
            "javapackage": "org.openbravo.pos2.allergens.fr_FR"
        },
        {
            "method": "git",
            "params": {
                "url": "https://gitlab.com/openbravo/product/pmods/org.openbravo.pos2.service.provider",
                "ver": "master"
            },
            "javapackage": "org.openbravo.pos2.service.provider"
        },
        {
            "method": "git",
            "params": {
                "url": "https://gitlab.com/openbravo/product/pmods/org.openbravo.discounts.propertycondition",
                "ver": "master"
            },
            "javapackage": "org.openbravo.discounts.propertycondition"
        },
        {
            "method": "git",
            "params": {
                "url": "https://gitlab.com/openbravo/product/pmods/org.openbravo.retail.camerabarcodescanner",
                "ver": "master"
            },
            "javapackage": "org.openbravo.retail.camerabarcodescanner"
        },
        {
            "method": "git",
            "params": {
                "url": "https://gitlab.com/openbravo/product/pmods/org.openbravo.retail.camerabarcodescanner.posterminal",
                "ver": "master"
            },
            "javapackage": "org.openbravo.retail.camerabarcodescanner.posterminal"
        },
        {
            "method": "git",
            "params": {
                "url": "https://gitlab.com/openbravo/product/pmods/org.openbravo.retail.sessions",
                "ver": "master"
            },
            "javapackage": "org.openbravo.retail.sessions"
        },
        {
            "method": "git",
            "params": {
                "url": "https://gitlab.com/openbravo/product/pmods/org.openbravo.retail.sessions.api",
                "ver": "master"
            },
            "javapackage": "org.openbravo.retail.sessions.api"
        },
        {
            "method": "git",
            "params": {
                "url": "https://gitlab.com/openbravo/product/pmods/org.openbravo.retail.discounts.combo",
                "ver": "master"
            },
            "javapackage": "org.openbravo.retail.discounts.combo"
        },
        {
            "method": "git",
            "params": {
                "url": "https://gitlab.com/openbravo/product/pmods/org.openbravo.retail.discounts.scaledprice",
                "ver": "master"
            },
            "javapackage": "org.openbravo.retail.discounts.scaledprice"
        },
        {
            "method": "git",
            "params": {
                "url": "https://gitlab.com/openbravo/product/pmods/org.openbravo.retail.discount.twofamiliescombo",
                "ver": "master"
            },
            "javapackage": "org.openbravo.retail.discount.twofamiliescombo"
        },
        {
            "method": "git",
            "params": {
                "url": "https://gitlab.com/openbravo/product/pmods/org.openbravo.product.label.printing.config",
                "ver": "master"
            },
            "javapackage": "org.openbravo.product.label.printing.config"
        },
        {
            "method": "git",
            "params": {
                "url": "https://gitlab.com/openbravo/product/pmods/org.openbravo.retail.copystore.product.label.printing",
                "ver": "master"
            },
            "javapackage": "org.openbravo.retail.copystore.product.label.printing"
        },
        {
            "method": "git",
            "params": {
                "url": "https://gitlab.com/openbravo/product/pmods/org.openbravo.pos2.product.label.printing",
                "ver": "master"
            },
            "javapackage": "org.openbravo.pos2.product.label.printing"
        },
        {
            "method": "git",
            "params": {
                "url": "https://gitlab.com/openbravo/product/pmods/org.openbravo.product.label.printing.commercialoperations",
                "ver": "master"
            },
            "javapackage": "org.openbravo.product.label.printing.commercialoperations"
        },
        {
            "method": "git",
            "params": {
                "url": "https://gitlab.com/openbravo/product/pmods/org.openbravo.pos2.stocktransitwarehouse",
                "ver": "master"
            },
            "javapackage": "org.openbravo.pos2.stocktransitwarehouse"
        },
        {
            "method": "git",
            "params": {
                "url": "https://gitlab.com/openbravo/product/pmods/org.openbravo.pos2.copystore",
                "ver": "master"
            },
            "javapackage": "org.openbravo.pos2.copystore"
        },
        {
            "method": "git",
            "params": {
                "url": "https://gitlab.com/openbravo/product/pmods/org.openbravo.pos2.fashion",
                "ver": "master"
            },
            "javapackage": "org.openbravo.pos2.fashion"
        },
        {
            "method": "git",
            "params": {
                "url": "https://gitlab.com/openbravo/product/pmods/org.openbravo.pos2.zh_CN",
                "ver": "master"
            },
            "javapackage": "org.openbravo.pos2.zh_CN"
        },
        {
            "method": "git",
            "params": {
                "url": "https://gitlab.com/openbravo/product/pmods/org.openbravo.pos2.service.provider.zh_CN",
                "ver": "master"
            },
            "javapackage": "org.openbravo.pos2.service.provider.zh_CN"
        },
        {
            "method": "git",
            "params": {
                "url": "https://gitlab.com/openbravo/product/pmods/org.openbravo.retail.maxlevelofcash",
                "ver": "master"
            },
            "javapackage": "org.openbravo.retail.maxlevelofcash"
        },
        {
            "method": "git",
            "params": {
                "url": "https://gitlab.com/openbravo/product/pmods/org.openbravo.warehouse.advancedwarehouseoperations.distributionorders.fashion",
                "ver": "master"
            },
            "javapackage": "org.openbravo.warehouse.advancedwarehouseoperations.distributionorders.fashion"
        },
        {
            "method": "git",
            "params": {
                "url": "https://gitlab.com/openbravo/product/pmods/org.openbravo.warehouse.advancedwarehouseoperations.distributionorders.template",
                "ver": "master"
            },
            "javapackage": "org.openbravo.warehouse.advancedwarehouseoperations.distributionorders.template"
        },
        {
            "method": "git",
            "params": {
                "url": "https://gitlab.com/openbravo/product/pmods/org.openbravo.warehouse.advancedwarehouseoperations.fashion",
                "ver": "master"
            },
            "javapackage": "org.openbravo.warehouse.advancedwarehouseoperations.fashion"
        },
        {
            "method": "git",
            "params": {
                "url": "https://gitlab.com/openbravo/product/pmods/org.openbravo.pos2.setcustomerreference",
                "ver": "master"
            },
            "javapackage": "org.openbravo.pos2.setcustomerreference"
        },
        {
            "method": "git",
            "params": {
                "url": "https://gitlab.com/openbravo/product/pmods/org.openbravo.pos2.setcustomerreference.giftcards",
                "ver": "master"
            },
            "javapackage": "org.openbravo.pos2.setcustomerreference.giftcards"
        },
        {
            "method": "git",
            "params": {
                "url": "https://gitlab.com/openbravo/product/pmods/org.openbravo.retail.api.crmdeduplication",
                "ver": "master"
            },
            "javapackage": "org.openbravo.retail.api.crmdeduplication"
        },
        {
            "method": "git",
            "params": {
                "url": "https://gitlab.com/openbravo/product/pmods/org.openbravo.retail.api.crmdeduplication.giftcards",
                "ver": "master"
            },
            "javapackage": "org.openbravo.retail.api.crmdeduplication.giftcards"
        }
    ],
    "deps": [{
            "method": "git",
            "params": {
                "url": "https://gitlab.com/openbravo/product/pmods/org.openbravo.retail.pack",
                "ver": "master"
            },
            "javapackage": "org.openbravo.retail.pack"
        },
        {
            "method": "git",
            "params": {
                "url": "https://gitlab.com/openbravo/product/pmods/org.openbravo.retail.returns",
                "ver": "master"
            },
            "javapackage": "org.openbravo.retail.returns"
        },
        {
            "method": "git",
            "params": {
                "url": "https://gitlab.com/openbravo/product/pmods/org.openbravo.retail.poshwmanager",
                "ver": "master"
            },
            "javapackage": "org.openbravo.retail.poshwmanager"
        },
        {
            "method": "git",
            "params": {
                "url": "https://gitlab.com/openbravo/product/pmods/org.openbravo.mobile.core",
                "ver": "master"
            },
            "javapackage": "org.openbravo.mobile.core"
        },
        {
            "method": "git",
            "params": {
                "url": "https://gitlab.com/openbravo/product/pmods/org.openbravo.retail.config",
                "ver": "master"
            },
            "javapackage": "org.openbravo.retail.config"
        },
        {
            "method": "git",
            "params": {
                "url": "https://gitlab.com/openbravo/devel/pmods/org.openbravo.retail.posterminal",
                "ver": "fr/51905"
            },
            "javapackage": "org.openbravo.retail.posterminal"
        },
        {
            "method": "git",
            "params": {
                "url": "https://gitlab.com/openbravo/product/pmods/org.openbravo.retail.discounts",
                "ver": "master"
            },
            "javapackage": "org.openbravo.retail.discounts"
        },
        {
            "method": "git",
            "params": {
                "url": "https://gitlab.com/openbravo/product/pmods/org.openbravo.retail.sampledata",
                "ver": "master"
            },
            "javapackage": "org.openbravo.retail.sampledata"
        },
        {
            "method": "git",
            "params": {
                "url": "https://gitlab.com/openbravo/ci/modules/org.openbravo.retail.samplebpintegration",
                "ver": "master"
            },
            "javapackage": "org.openbravo.retail.samplebpintegration"
        },
        {
            "method": "git",
            "params": {
                "url": "https://gitlab.com/openbravo/product/mods/org.openbravo.utility.opencsv",
                "ver": "master"
            },
            "javapackage": "org.openbravo.utility.opencsv"
        },
        {
            "method": "git",
            "params": {
                "url": "https://gitlab.com/openbravo/product/pmods/org.openbravo.retail.webpayment",
                "ver": "master"
            },
            "javapackage": "org.openbravo.retail.webpayment"
        },
        {
            "method": "git",
            "params": {
                "url": "https://gitlab.com/openbravo/product/pmods/org.openbravo.api",
                "ver": "master"
            },
            "javapackage": "org.openbravo.api"
        },
        {
            "method": "git",
            "params": {
                "url": "https://gitlab.com/openbravo/product/pmods/org.openbravo.service.openapi",
                "ver": "master"
            },
            "javapackage": "org.openbravo.service.openapi"
        },
        {
            "method": "git",
            "params": {
                "url": "https://gitlab.com/openbravo/product/pmods/org.openbravo.service.external.integration",
                "ver": "master"
            },
            "javapackage": "org.openbravo.service.external.integration"
        },
        {
            "method": "git",
            "params": {
                "url": "https://gitlab.com/openbravo/product/pmods/org.openbravo.externaldata.integration",
                "ver": "master"
            },
            "javapackage": "org.openbravo.externaldata.integration"
        },
        {
            "method": "git",
            "params": {
                "url": "https://gitlab.com/openbravo/product/pmods/org.openbravo.events.core",
                "ver": "master"
            },
            "javapackage": "org.openbravo.events.core"
        },
        {
            "method": "git",
            "params": {
                "url": "https://gitlab.com/openbravo/product/mods/org.openbravo.distributionorder",
                "ver": "master"
            },
            "javapackage": "org.openbravo.distributionorder"
        },
        {
            "method": "git",
            "params": {
                "url": "https://gitlab.com/openbravo/product/pmods/org.openbravo.copyprocess",
                "ver": "master"
            },
            "javapackage": "org.openbravo.copyprocess"
        },
	{
            "method": "git",
            "params": {
                "url": "https://gitlab.com/openbravo/product/pmods/org.openbravo.retail.copystore",
                "ver": "master"
            },
            "javapackage": "org.openbravo.retail.copystore"
        },
        {
            "method": "git",
            "params": {
                "url": "https://gitlab.com/openbravo/product/pmods/org.openbravo.warehouse.advancedwarehouseoperations",
                "ver": "master"
            },
            "javapackage": "org.openbravo.warehouse.advancedwarehouseoperations"
        },
        {
            "method": "git",
            "params": {
                "url": "https://gitlab.com/openbravo/product/pmods/org.openbravo.warehouse.advancedwarehouseoperations.distributionorders",
                "ver": "master"
            },
            "javapackage": "org.openbravo.warehouse.advancedwarehouseoperations.distributionorders"
        },
        {
            "method": "git",
            "params": {
                "url": "https://gitlab.com/openbravo/product/pmods/org.openbravo.events.client",
                "ver": "master"
            },
            "javapackage": "org.openbravo.events.client"
        },
        {
            "method": "git",
            "params": {
                "url": "https://gitlab.com/openbravo/product/pmods/org.openbravo.events.discounts",
                "ver": "master"
            },
            "javapackage": "org.openbravo.events.discounts"
        },
		{
            "method": "git",
            "params": {
                "url": "https://gitlab.com/openbravo/devel/pmods/org.openbravo.retail.depositinvoice",
                "ver": "fr/51905"
            },
            "javapackage": "org.openbravo.retail.depositinvoice"
        }
    ],
    "scripts": {
	"execute-cypress": [
            {
                "file": "retail/execute_cypress_test.sh",
                "params": [
                    "$WORKSPACE $JOB_NAME"
                ]
            }
        ]
    }
}
