{
    "automation": [
        {
            "javapackage": "mobile-test",
            "method": "git",
            "params": {
                "url": "https://gitlab.com/openbravo/ci/mobile-test",
                "ver": "323e49e8880f994654e25e54d27cc3a0e9c9f018"
            }
        }
    ],
    "desc": "Config for retail team",
    "erp": {
        "method": "git",
        "params": {
            "url": "https://gitlab.com/openbravo/product/openbravo",
            "ver": "c8afbc2f6c7f450fbcddb29ec48cbf72fdb81f1a"
        }
    },
    "mods": [
        {
            "method": "git",
            "params": {
                "url": "https://gitlab.com/openbravo/product/pmods/org.openbravo.retail.discounts.bypaymentmethod",
                "ver": "42a604821fb1287ca25a70e0ddc4b7b4186c65e6"
            },
            "javapackage": "org.openbravo.retail.discounts.bypaymentmethod"
        },
        {
            "method": "git",
            "params": {
                "url": "https://gitlab.com/openbravo/product/pmods/org.openbravo.retail.discounts.bytotal",
                "ver": "49cf420b3753e4af2105a0a9f331cd6251d2e37f"
            },
            "javapackage": "org.openbravo.retail.discounts.bytotal"
        },
        {
            "method": "git",
            "params": {
                "url": "https://gitlab.com/openbravo/product/unsupported/modules/org.openbravo.mobile.warehouse",
                "ver": "11875b377c110174ad5ada7cb6cb72de31787de4"
            },
            "javapackage": "org.openbravo.mobile.warehouse"
        },
        {
            "method": "git",
            "params": {
                "url": "https://gitlab.com/openbravo/product/pmods/org.openbravo.multiupc",
                "ver": "9a6db58ac30595b8643e202729e4da4682c2c1e6"
            },
            "javapackage": "org.openbravo.multiupc"
        },
        {
            "method": "git",
            "params": {
                "url": "https://gitlab.com/openbravo/product/pmods/org.openbravo.retail.discounts.coupons",
                "ver": "4820c66bf325ec3e05ca979285a614b4b487b021"
            },
            "javapackage": "org.openbravo.retail.discounts.coupons"
        },
        {
            "method": "git",
            "params": {
                "url": "https://gitlab.com/openbravo/product/pmods/org.openbravo.retail.discounts.coupons.otf",
                "ver": "8fb7dc49c6c5bfffcabb92ced545bdde7c7e76c6"
            },
            "javapackage": "org.openbravo.retail.discounts.coupons.otf"
        },
        {
            "method": "git",
            "params": {
                "url": "https://gitlab.com/openbravo/product/pmods/org.openbravo.retail.pricecriteria",
                "ver": "35c073fa23ed6b275d03383ffbb91d120e5242f1"
            },
            "javapackage": "org.openbravo.retail.pricecriteria"
        },
        {
            "method": "git",
            "params": {
                "url": "https://gitlab.com/openbravo/product/pmods/org.openbravo.retail.discounts.category",
                "ver": "e6f0eeb7788bbd8407eeba747e0788ed220b7bf9"
            },
            "javapackage": "org.openbravo.retail.discounts.category"
        },
        {
            "method": "git",
            "params": {
                "url": "https://gitlab.com/openbravo/product/pmods/org.openbravo.retail.discounts.bestdeal",
                "ver": "4911d09a2fc62d0a92a48d979c5a9d48ade72dbc"
            },
            "javapackage": "org.openbravo.retail.discounts.bestdeal"
        },
        {
            "method": "git",
            "params": {
                "url": "https://gitlab.com/openbravo/product/pmods/org.openbravo.retail.discount.twofamiliescombo",
                "ver": "4563ca2cbf1bee2735fccf5134a9e28dd1ec42a9"
            },
            "javapackage": "org.openbravo.retail.discount.twofamiliescombo"
        },
        {
            "method": "git",
            "params": {
                "url": "https://gitlab.com/openbravo/product/pmods/org.openbravo.retail.copystore",
                "ver": "2faee32ff0b0dfc8b32765cff7ef822852ec31bc"
            },
            "javapackage": "org.openbravo.retail.copystore"
        },
        {
            "method": "git",
            "params": {
                "url": "https://gitlab.com/openbravo/product/pmods/org.openbravo.retail.complementary",
                "ver": "64e982f527fb46552b5f0aef1133abe59335184a"
            },
            "javapackage": "org.openbravo.retail.complementary"
        },
        {
            "method": "git",
            "params": {
                "url": "https://gitlab.com/openbravo/product/unsupported/modules/org.openbravo.mobile.warehouse.physicalinventory",
                "ver": "7e04cf0ca58b048f2bf9dfa4d34b2acdb1e7edf9"
            },
            "javapackage": "org.openbravo.mobile.warehouse.physicalinventory"
        },
        {
            "method": "git",
            "params": {
                "url": "https://gitlab.com/openbravo/product/pmods/org.openbravo.mobile.procurement",
                "ver": "49ac9a0fcc3ddeb6bfb50f7cf9e472a14aee29f6"
            },
            "javapackage": "org.openbravo.mobile.procurement"
        },
        {
            "method": "git",
            "params": {
                "url": "https://gitlab.com/openbravo/product/pmods/org.openbravo.retail.multiupc",
                "ver": "506edbd2caeef2c9a87cf170c66a8afe8ac8ead9"
            },
            "javapackage": "org.openbravo.retail.multiupc"
        },
        {
            "method": "git",
            "params": {
                "url": "https://gitlab.com/openbravo/product/pmods/org.openbravo.retail.discounts.combo",
                "ver": "04882269eb5d41e60b9c4dfee5c8c679bdfc8318"
            },
            "javapackage": "org.openbravo.retail.discounts.combo"
        },
        {
            "method": "git",
            "params": {
                "url": "https://gitlab.com/openbravo/product/pmods/org.openbravo.retail.analytics",
                "ver": "7cab2c01866c4ea205f28528fd60b4511e277941"
            },
            "javapackage": "org.openbravo.retail.analytics"
        },
        {
            "method": "git",
            "params": {
                "url": "https://gitlab.com/openbravo/product/pmods/org.openbravo.retail.taxexempt",
                "ver": "df5bf6ea6b7f4e5af1f9dcb5d0e0779eb1d34f07"
            },
            "javapackage": "org.openbravo.retail.taxexempt"
        },
        {
            "method": "git",
            "params": {
                "url": "https://gitlab.com/openbravo/product/pmods/org.openbravo.retail.stockvalidation",
                "ver": "acf695480ec0094855422c965116946225cba2b0"
            },
            "javapackage": "org.openbravo.retail.stockvalidation"
        },
        {
            "method": "git",
            "params": {
                "url": "https://gitlab.com/openbravo/product/pmods/org.openbravo.retail.giftcards",
                "ver": "c4f4bcdc62f7eb6dd0848f61e347b6d50e6b5734"
            },
            "javapackage": "org.openbravo.retail.giftcards"
        },
        {
            "method": "git",
            "params": {
                "url": "https://gitlab.com/openbravo/product/pmods/org.openbravo.retail.stockcriteria",
                "ver": "b4db2b0338cc699457ea47fda568e09a15f389b3"
            },
            "javapackage": "org.openbravo.retail.stockcriteria"
        },
        {
            "method": "git",
            "params": {
                "url": "https://gitlab.com/openbravo/product/pmods/org.openbravo.retail.levelpricing",
                "ver": "a728d08207e8141a5ae14940809dec9ca1ac9e32"
            },
            "javapackage": "org.openbravo.retail.levelpricing"
        },
        {
            "method": "git",
            "params": {
                "url": "https://gitlab.com/openbravo/product/pmods/org.openbravo.retail.activediscountspopup",
                "ver": "8384a05bf5e15a8b1175914a7005193b2a12e1c1"
            },
            "javapackage": "org.openbravo.retail.activediscountspopup"
        },
        {
            "method": "git",
            "params": {
                "url": "https://gitlab.com/openbravo/product/pmods/org.openbravo.retail.copybestsellers",
                "ver": "9089976280d3e3f9816d658b67d034acebe5eb77"
            },
            "javapackage": "org.openbravo.retail.copybestsellers"
        },
        {
            "method": "git",
            "params": {
                "url": "https://gitlab.com/openbravo/product/pmods/org.openbravo.retail.discounts.scaledprice",
                "ver": "de7ac5c3d9d46a35207928a269b8c620bfaf021e"
            },
            "javapackage": "org.openbravo.retail.discounts.scaledprice"
        },
        {
            "method": "git",
            "params": {
                "url": "https://gitlab.com/openbravo/product/pmods/org.openbravo.retail.bestsellers",
                "ver": "b7e259fc0f2b9275660f327a37cc7ea2322df33b"
            },
            "javapackage": "org.openbravo.retail.bestsellers"
        },
        {
            "method": "git",
            "params": {
                "url": "https://gitlab.com/openbravo/product/pmods/org.openbravo.pricing.levelpricing",
                "ver": "9ae83b3f310e416ccb34d334698845fca277a52d"
            },
            "javapackage": "org.openbravo.pricing.levelpricing"
        },
        {
            "method": "git",
            "params": {
                "url": "https://gitlab.com/openbravo/product/pmods/org.openbravo.retail.showprodsk",
                "ver": "9769ed8b11d83b64c1c3033aca40ab803a3d060e"
            },
            "javapackage": "org.openbravo.retail.showprodsk"
        },
        {
            "method": "git",
            "params": {
                "url": "https://gitlab.com/openbravo/product/pmods/org.openbravo.retail.trainingmode",
                "ver": "e936bbad94b49c97cbc49676bcdc3023a99e318c"
            },
            "javapackage": "org.openbravo.retail.trainingmode"
        },
        {
            "method": "git",
            "params": {
                "url": "https://gitlab.com/openbravo/product/pmods/org.openbravo.retail.printlast",
                "ver": "97c9b17b4f9787f49bff395de5ce3ff264b950c8"
            },
            "javapackage": "org.openbravo.retail.printlast"
        },
        {
            "method": "git",
            "params": {
                "url": "https://gitlab.com/openbravo/product/pmods/org.openbravo.retail.sessions",
                "ver": "8828c8c75e33189e086e018ea05d6022695cfbd5"
            },
            "javapackage": "org.openbravo.retail.sessions"
        },
        {
            "method": "git",
            "params": {
                "url": "https://gitlab.com/openbravo/product/pmods/org.openbravo.retail.marginindicator",
                "ver": "12c0beb9bf25c4e029cc1dd64362258d3dd5f8d3"
            },
            "javapackage": "org.openbravo.retail.marginindicator"
        },
        {
            "method": "git",
            "params": {
                "url": "https://gitlab.com/openbravo/product/pmods/org.openbravo.retail.productonthefly",
                "ver": "18321568f89e5a2a3c71d2df8a4a0f33bfbdc835"
            },
            "javapackage": "org.openbravo.retail.productonthefly"
        },
        {
            "method": "git",
            "params": {
                "url": "https://gitlab.com/openbravo/product/pmods/org.openbravo.retail.discounts.cost",
                "ver": "b6a1ffb659a3322bc204ef8f45e81ed9e7ced868"
            },
            "javapackage": "org.openbravo.retail.discounts.cost"
        },
        {
            "method": "git",
            "params": {
                "url": "https://gitlab.com/openbravo/product/pmods/org.openbravo.retail.scanreceipt",
                "ver": "191076e310524c6370ab7b9df82aa0a1316ae8fe"
            },
            "javapackage": "org.openbravo.retail.scanreceipt"
        },
        {
            "method": "git",
            "params": {
                "url": "https://gitlab.com/openbravo/product/pmods/org.openbravo.retail.digitalcoupons",
                "ver": "1633ae65802b9d3a76782edf15f1aef0154d3e90"
            },
            "javapackage": "org.openbravo.retail.digitalcoupons"
        },
        {
            "method": "git",
            "params": {
                "url": "https://gitlab.com/openbravo/product/pmods/org.openbravo.retail.chequecadeau",
                "ver": "a48176b591881b90bf275d0c85a60beef4f008f1"
            },
            "javapackage": "org.openbravo.retail.chequecadeau"
        },
        {
            "method": "git",
            "params": {
                "url": "https://gitlab.com/openbravo/product/pmods/org.openbravo.retail.selfcheckout",
                "ver": "e68b4e8f892ed7c747cb4786cf50b25cf6266827"
            },
            "javapackage": "org.openbravo.retail.selfcheckout"
        },
        {
            "method": "git",
            "params": {
                "url": "https://gitlab.com/openbravo/product/pmods/org.openbravo.retail.fastbrowse",
                "ver": "e513a3fb9880ece00be8ba4c7ad78a7ebb18c0b6"
            },
            "javapackage": "org.openbravo.retail.fastbrowse"
        },
        {
            "method": "git",
            "params": {
                "url": "https://gitlab.com/openbravo/product/pmods/org.openbravo.retail.selfcheckout.bestdeal",
                "ver": "7ceeb94651a038d036254ff1b69ca7db71bc5951"
            },
            "javapackage": "org.openbravo.retail.selfcheckout.bestdeal"
        },
        {
            "method": "git",
            "params": {
                "url": "https://gitlab.com/openbravo/product/pmods/org.openbravo.retail.verystar",
                "ver": "afb4336177f55f10b02d5e3d5620c10534c3c4bd"
            },
            "javapackage": "org.openbravo.retail.verystar"
        },
        {
            "method": "git",
            "params": {
                "url": "https://gitlab.com/openbravo/product/pmods/org.openbravo.retail.selfcheckout.verystar",
                "ver": "51e7fc82f729b439129b1cb73c1868a281c96f25"
            },
            "javapackage": "org.openbravo.retail.selfcheckout.verystar"
        },
        {
            "method": "git",
            "params": {
                "url": "https://gitlab.com/openbravo/product/unsupported/modules/org.openbravo.mobile.warehouse.picking",
                "ver": "6193f3c847953d02157b3808ec4c9b867fbfa741"
            },
            "javapackage": "org.openbravo.mobile.warehouse.picking"
        },
        {
            "method": "git",
            "params": {
                "url": "https://gitlab.com/openbravo/product/pmods/org.openbravo.pricing.scalablelevelpricing",
                "ver": "82c0b2b703932ca59968d49befd4b16e92b26a09"
            },
            "javapackage": "org.openbravo.pricing.scalablelevelpricing"
        },
        {
            "method": "git",
            "params": {
                "url": "https://gitlab.com/openbravo/product/unsupported/modules/org.openbravo.warehouse.pickinglist",
                "ver": "9cdf39ab12b54eb0275eb736b001378937b4e957"
            },
            "javapackage": "org.openbravo.warehouse.pickinglist"
        },
        {
            "method": "git",
            "params": {
                "url": "https://gitlab.com/openbravo/product/unsupported/modules/org.openbravo.warehouse.structure",
                "ver": "0a6e3d7d4a8137f183a288f026fe6ef473ffcfcb"
            },
            "javapackage": "org.openbravo.warehouse.structure"
        },
        {
            "method": "git",
            "params": {
                "url": "https://gitlab.com/openbravo/devel/ci/modules/org.openbravo.certification.france.dev",
                "ver": "release/19Q3"
            },
            "javapackage": "org.openbravo.certification.france"
        },
        {
            "method": "git",
            "params": {
                "url": "https://gitlab.com/openbravo/ci/modules/org.openbravo.certification.france.testing",
                "ver": "2e9456194472222c39d377ba56f4a35b42dd2837"
            },
            "javapackage": "org.openbravo.certification.france.testing"
        },
        {
            "method": "git",
            "params": {
                "url": "https://gitlab.com/openbravo/product/pmods/org.openbravo.retail.contactinfoforproduct",
                "ver": "875ae9c55bd11296da47f7fb7e257501d1c646e3"
            },
            "javapackage": "org.openbravo.retail.contactinfoforproduct"
        },
        {
            "method": "git",
            "params": {
                "url": "https://gitlab.com/openbravo/product/pmods/org.openbravo.retail.multitaxcategory",
                "ver": "7a73a349f2ecd35231b804dcef93d2b8e1e90b21"
            },
            "javapackage": "org.openbravo.retail.multitaxcategory"
        },
        {
            "method": "git",
            "params": {
                "url": "https://gitlab.com/openbravo/product/pmods/org.openbravo.retail.sumupprovider",
                "ver": "e53d57e1d5e8adef5b9f0fbb397f0d387c2a552f"
            },
            "javapackage": "org.openbravo.retail.sumupprovider"
        },
        {
            "method": "git",
            "params": {
                "url": "https://gitlab.com/openbravo/product/pmods/org.openbravo.retail.chasepaymentech",
                "ver": "e505bc015843564bf68f193bd03929ecf87b4f4d"
            },
            "javapackage": "org.openbravo.retail.chasepaymentech"
        },
        {
            "method": "git",
            "params": {
                "url": "https://gitlab.com/openbravo/product/pmods/org.openbravo.retail.selfcheckout.chasepaymentech",
                "ver": "8102885160f2dd5918afedb5ec09775ab32e8fbf"
            },
            "javapackage": "org.openbravo.retail.selfcheckout.chasepaymentech"
        },
        {
            "method": "git",
            "params": {
                "url": "https://gitlab.com/openbravo/product/pmods/org.openbravo.retail.emailphoneicons",
                "ver": "e669eb0d5adc78f221bd145864365a284048131d"
            },
            "javapackage": "org.openbravo.retail.emailphoneicons"
        },
        {
            "method": "git",
            "params": {
                "url": "https://gitlab.com/openbravo/product/pmods/org.openbravo.retail.autobom",
                "ver": "36a4a91ef237f8bcf580a5270ac0013a95042d2a"
            },
            "javapackage": "org.openbravo.retail.autobom"
        },
        {
            "method": "git",
            "params": {
                "url": "https://gitlab.com/openbravo/product/pmods/org.openbravo.retail.forgotpassword",
                "ver": "9b7e615848066b38a6321bba30fd380847c8da13"
            },
            "javapackage": "org.openbravo.retail.forgotpassword"
        },
        {
            "method": "git",
            "params": {
                "url": "https://gitlab.com/openbravo/product/pmods/org.openbravo.retail.services.autoprice",
                "ver": "2c983b196f0485d82eb4a7ce03b258de5cca1b28"
            },
            "javapackage": "org.openbravo.retail.services.autoprice"
        },
        {
            "method": "git",
            "params": {
                "url": "https://gitlab.com/openbravo/product/pmods/org.openbravo.loyalty.programs",
                "ver": "09c06168587955971a4428c4c61abe6727176838"
            },
            "javapackage": "org.openbravo.loyalty.programs"
        },
        {
            "method": "git",
            "params": {
                "url": "https://gitlab.com/openbravo/product/pmods/org.openbravo.retail.loyalty.programs",
                "ver": "ffcb5d1ce587269f660f0de1d6fe4d0e87ea3d57"
            },
            "javapackage": "org.openbravo.retail.loyalty.programs"
        },
        {
            "method": "git",
            "params": {
                "url": "https://gitlab.com/openbravo/product/unsupported/modules/org.openbravo.retail.restaurantmanagement",
                "ver": "a90ab45ee870fbe41ac0c49baccb7e020ff257c4"
            },
            "javapackage": "org.openbravo.retail.restaurantmanagement"
        }
    ],
    "deps": [
        {
            "method": "git",
            "params": {
                "url": "https://gitlab.com/openbravo/product/pmods/org.openbravo.retail.pack",
                "ver": "ce52219f2d7ac71750da9e255c9b9b55a8178437"
            },
            "javapackage": "org.openbravo.retail.pack"
        },
        {
            "method": "git",
            "params": {
                "url": "https://gitlab.com/openbravo/product/pmods/org.openbravo.retail.returns",
                "ver": "8f0bac4d3d8c57542c0b268057a8ae1f36475efd"
            },
            "javapackage": "org.openbravo.retail.returns"
        },
        {
            "method": "git",
            "params": {
                "url": "https://gitlab.com/openbravo/product/pmods/org.openbravo.retail.poshwmanager",
                "ver": "2ade9c600893dc9e5541877a6aa1924bfe8c5bf5"
            },
            "javapackage": "org.openbravo.retail.poshwmanager"
        },
        {
            "method": "git",
            "params": {
                "url": "https://gitlab.com/openbravo/product/pmods/org.openbravo.mobile.core",
                "ver": "65d56b58de5c3b9cca622c934bc94ebc386d767c"
            },
            "javapackage": "org.openbravo.mobile.core"
        },
        {
            "method": "git",
            "params": {
                "url": "https://gitlab.com/openbravo/product/pmods/org.openbravo.retail.config",
                "ver": "b7a8cfe603ac7596889be3074a959059b6e967be"
            },
            "javapackage": "org.openbravo.retail.config"
        },
        {
            "method": "git",
            "params": {
                "url": "https://gitlab.com/openbravo/product/pmods/org.openbravo.retail.posterminal",
                "ver": "b2d00e77b35d381eca7072cb18f6dc1a7fa1e578"
            },
            "javapackage": "org.openbravo.retail.posterminal"
        },
        {
            "method": "git",
            "params": {
                "url": "https://gitlab.com/openbravo/product/pmods/org.openbravo.retail.discounts",
                "ver": "2a1d1404ea7fd49036fa19713ae280f7a1b77146"
            },
            "javapackage": "org.openbravo.retail.discounts"
        },
        {
            "method": "git",
            "params": {
                "url": "https://gitlab.com/openbravo/product/pmods/org.openbravo.client.analytics",
                "ver": "ba352f0dc195e764d5b514eb9f757bd0d7a2754c"
            },
            "javapackage": "org.openbravo.client.analytics"
        },
        {
            "method": "git",
            "params": {
                "url": "https://gitlab.com/openbravo/product/pmods/org.openbravo.financial.multitaxcategory",
                "ver": "b2706bf3839921965d42c8f7f3ab7353852ee0bf"
            },
            "javapackage": "org.openbravo.financial.multitaxcategory"
        },
        {
            "method": "git",
            "params": {
                "url": "https://gitlab.com/openbravo/ci/modules/org.openbravo.retail.postest",
                "ver": "f9b07b5cbf001a8e8b9453eb1eac7099c2635f16"
            },
            "javapackage": "org.openbravo.retail.postest"
        },
        {
            "method": "git",
            "params": {
                "url": "https://gitlab.com/openbravo/product/pmods/org.openbravo.retail.servicesequence",
                "ver": "979c17f320285a41f53ac1698ab2fc496f8066d4"
            },
            "javapackage": "org.openbravo.retail.servicesequence"
        },
        {
            "method": "git",
            "params": {
                "url": "https://gitlab.com/openbravo/ci/modules/org.openbravo.retail.testsampledata",
                "ver": "0981874347ac3148fd2c644a020c845df0a0984b"
            },
            "javapackage": "org.openbravo.retail.testsampledata"
        },
        {
            "method": "git",
            "params": {
                "url": "https://gitlab.com/openbravo/product/pmods/org.openbravo.retail.productcost",
                "ver": "0e6d7cf0fe9d47a48761962eb2d388ff51aa59bb"
            },
            "javapackage": "org.openbravo.retail.productcost"
        },
        {
            "method": "git",
            "params": {
                "url": "https://gitlab.com/openbravo/ci/modules/org.openbravo.test.mobile.sampledata",
                "ver": "12167a476f72b60a969f7ab35174439f1969de43"
            },
            "javapackage": "org.openbravo.test.mobile.sampledata"
        },
        {
            "method": "git",
            "params": {
                "url": "https://gitlab.com/openbravo/product/mods/org.openbravo.module.languagelocalname",
                "ver": "2a13a60024ed7620526de0709257251e809395ea"
            },
            "javapackage": "org.openbravo.module.languagelocalname"
        },
        {
            "method": "git",
            "params": {
                "url": "https://gitlab.com/openbravo/product/pmods/org.openbravo.warehouse.advancedwarehouseoperations",
                "ver": "cd8aee1d9a63cd6963c691eca92d3624854c86ce"
            },
            "javapackage": "org.openbravo.warehouse.advancedwarehouseoperations"
        },
        {
            "method": "git",
            "params": {
                "url": "https://gitlab.com/openbravo/product/pmods/org.openbravo.warehouse.advancedwarehouseoperations.printing.bartender",
                "ver": "fd006672a5b33d0e9e20faf4e8d76dd048742339"
            },
            "javapackage": "org.openbravo.warehouse.advancedwarehouseoperations.printing.bartender"
        },
        {
            "method": "git",
            "params": {
                "url": "https://gitlab.com/openbravo/product/pmods/org.openbravo.warehouse.advancedwarehouseoperations.template",
                "ver": "17aba07c0928bbca7c7ab6ebdc57668be9814c89"
            },
            "javapackage": "org.openbravo.warehouse.advancedwarehouseoperations.template"
        },
        {
            "method": "git",
            "params": {
                "url": "https://gitlab.com/openbravo/ci/modules/org.openbravo.warehouse.advancedwarehouseoperations.sampledata",
                "ver": "0af88e7558307c7489821821d46fcae0ded9c4cc"
            },
            "javapackage": "org.openbravo.warehouse.advancedwarehouseoperations.sampledata"
        },
        {
            "method": "git",
            "params": {
                "url": "https://gitlab.com/openbravo/product/mods/org.openbravo.distributionorder",
                "ver": "c6fb66819567bcaae3df031407ce795414748ad8"
            },
            "javapackage": "org.openbravo.distributionorder"
        },
        {
            "method": "git",
            "params": {
                "url": "https://gitlab.com/openbravo/product/pmods/org.openbravo.warehouse.advancedwarehouseoperations.distributionorders",
                "ver": "200f238cec88ee311946c5a3538861ffe19bf55b"
            },
            "javapackage": "org.openbravo.warehouse.advancedwarehouseoperations.distributionorders"
        },
        {
            "method": "git",
            "params": {
                "url": "https://gitlab.com/openbravo/product/pmods/org.openbravo.warehouse.advancedwarehouseoperations.retailconnector",
                "ver": "9b9968680c39e7dba825629ffe4f1e8ccd6859ee"
            },
            "javapackage": "org.openbravo.warehouse.advancedwarehouseoperations.retailconnector"
        },
        {
            "method": "git",
            "params": {
                "url": "https://gitlab.com/openbravo/product/mods/org.openbravo.utility.opencsv",
                "ver": "2d9c6331e4f88d33892779946e771391ce1e4ed2"
            },
            "javapackage": "org.openbravo.utility.opencsv"
        },
        {
            "method": "git",
            "params": {
                "url": "https://gitlab.com/openbravo/product/pmods/org.openbravo.externaldata.integration",
                "ver": "c891ed59be88bef235907fe8a7a95b579f8a24d1"
            },
            "javapackage": "org.openbravo.externaldata.integration"
        },
        {
            "method": "git",
            "params": {
                "url": "https://gitlab.com/openbravo/product/pmods/org.openbravo.service.external.integration",
                "ver": "3a7258d9230b10a9a5750224d41c6ea9619bb8ec"
            },
            "javapackage": "org.openbravo.service.external.integration"
        },
        {
            "method": "git",
            "params": {
                "url": "https://gitlab.com/openbravo/product/pmods/org.openbravo.retail.orderpreparation",
                "ver": "bdd329c6b38eca7b9393d8628d0c4fc198cb3f11"
            },
            "javapackage": "org.openbravo.retail.orderpreparation"
        },
        {
            "method": "git",
            "params": {
                "url": "https://gitlab.com/openbravo/product/pmods/org.openbravo.retail.camerabarcodescanner",
                "ver": "782ce478e24afdd2a89f0ab4e9ba7c135bdd6657"
            },
            "javapackage": "org.openbravo.retail.camerabarcodescanner"
        },
        {
            "method": "git",
            "params": {
                "url": "https://gitlab.com/openbravo/product/pmods/org.openbravo.retail.camerabarcodescanner.posterminal",
                "ver": "baffc1554586b0022a007f9e62289ce638bd92f7"
            },
            "javapackage": "org.openbravo.retail.camerabarcodescanner.posterminal"
        },
        {
            "method": "git",
            "params": {
                "url": "https://gitlab.com/openbravo/product/pmods/org.openbravo.retail.productrelevance",
                "ver": "9451087454210db672dab4c6588c0a88d07d9c04"
            },
            "javapackage": "org.openbravo.retail.productrelevance"
        },
        {
            "method": "git",
            "params": {
                "url": "https://gitlab.com/openbravo/product/pmods/org.openbravo.module.resources",
                "ver": "9b8b746361808f834750dc13fd7f94a5fb68df99"
            },
            "javapackage": "org.openbravo.module.resources"
        },
        {
            "method": "git",
            "params": {
                "url": "https://gitlab.com/openbravo/product/mods/org.openbravo.module.productbomversion",
                "ver": "3725a8d03f0d0ac1bbc5759b7a1f9ac1207dc7b2"
            },
            "javapackage": "org.openbravo.module.productbomversion"
        },
        {
            "method": "git",
            "params": {
                "url": "https://gitlab.com/openbravo/product/mods/org.openbravo.module.productbomversion.template",
                "ver": "360cefd36f7df88b51cc41ab52250eebb80f5c85"
            },
            "javapackage": "org.openbravo.module.productbomversion.template"
        },
        {
            "method": "git",
            "params": {
                "url": "https://gitlab.com/openbravo/product/pmods/org.openbravo.portal.member.roles",
                "ver": "7ce67dbb7ab476aebd3b3ddc05a70eaeb232992b"
            },
            "javapackage": "org.openbravo.portal.member.roles"
        },
        {
            "method": "git",
            "params": {
                "url": "https://gitlab.com/openbravo/product/pmods/org.openbravo.retail.productranking",
                "ver": "32894937999dca2993150725a89e67a06881ec71"
            },
            "javapackage": "org.openbravo.retail.productranking"
        },
        {
            "method": "git",
            "params": {
                "url": "https://gitlab.com/openbravo/product/pmods/org.openbravo.retail.paymentmethodadditionalinfo",
                "ver": "f8b1d48892ebdb6f50e21b77f1e995f1e9a73f01"
            },
            "javapackage": "org.openbravo.retail.paymentmethodadditionalinfo"
        },
        {
            "method": "git",
            "params": {
                "url": "https://gitlab.com/openbravo/product/mods/org.openbravo.module.cashvat",
                "ver": "1449ea8b24adead7ce549a373126261563b84d59"
            },
            "javapackage": "org.openbravo.module.cashvat"
        }
    ]
}
