{
    "automation": [
        {
            "javapackage": "mobile-test",
            "method": "git",
            "params": {
                "url": "https://gitlab.com/openbravo/ci/mobile-test",
                "ver": "release/22Q2"
            }
        }
    ],
    "desc": "Config for retail team",
    "erp": {
        "method": "git",
        "params": {
            "url": "https://gitlab.com/openbravo/product/openbravo",
            "ver": "release/22Q2"
        }
    },
    "mods": [
        {
            "method": "git",
            "params": {
                "url": "https://gitlab.com/openbravo/product/pmods/org.openbravo.retail.discounts.bypaymentmethod",
                "ver": "d558a1ef0f8a835296d2695b1acc301025a9fd1e"
            },
            "javapackage": "org.openbravo.retail.discounts.bypaymentmethod"
        },
        {
            "method": "git",
            "params": {
                "url": "https://gitlab.com/openbravo/product/pmods/org.openbravo.retail.discounts.bytotal",
                "ver": "788c1be2b52d2c9b98fae206a37dda3879c78129"
            },
            "javapackage": "org.openbravo.retail.discounts.bytotal"
        },
        {
            "method": "git",
            "params": {
                "url": "https://gitlab.com/openbravo/product/pmods/org.openbravo.multiupc",
                "ver": "406709628c726245dba54db216cf356660863869"
            },
            "javapackage": "org.openbravo.multiupc"
        },
        {
            "method": "git",
            "params": {
                "url": "https://gitlab.com/openbravo/product/pmods/org.openbravo.retail.discounts.coupons",
                "ver": "c60a33216b33bcda8b67d1d247640085cb6aede0"
            },
            "javapackage": "org.openbravo.retail.discounts.coupons"
        },
        {
            "method": "git",
            "params": {
                "url": "https://gitlab.com/openbravo/product/pmods/org.openbravo.retail.discounts.coupons.otf",
                "ver": "e6d49c25cebb260d9ce1d50ac918b8cb9983dc8a"
            },
            "javapackage": "org.openbravo.retail.discounts.coupons.otf"
        },
        {
            "method": "git",
            "params": {
                "url": "https://gitlab.com/openbravo/product/pmods/org.openbravo.retail.pricecriteria",
                "ver": "f9d0a827e13d4f0c353a7f655dffcb778513e23c"
            },
            "javapackage": "org.openbravo.retail.pricecriteria"
        },
        {
            "method": "git",
            "params": {
                "url": "https://gitlab.com/openbravo/product/pmods/org.openbravo.retail.discounts.category",
                "ver": "deeb30e43f0139687305b64d6360316f70c9237d"
            },
            "javapackage": "org.openbravo.retail.discounts.category"
        },
        {
            "method": "git",
            "params": {
                "url": "https://gitlab.com/openbravo/product/pmods/org.openbravo.retail.discount.twofamiliescombo",
                "ver": "6ae8d20d41a94a92c965b5ce230be0187efac69c"
            },
            "javapackage": "org.openbravo.retail.discount.twofamiliescombo"
        },
        {
            "method": "git",
            "params": {
                "url": "https://gitlab.com/openbravo/product/pmods/org.openbravo.retail.copystore",
                "ver": "214d8f1c83e6f19d544be68671ef413b0e9708d8"
            },
            "javapackage": "org.openbravo.retail.copystore"
        },
        {
            "method": "git",
            "params": {
                "url": "https://gitlab.com/openbravo/product/pmods/org.openbravo.retail.copystore.excel",
                "ver": "0e4fc6c735835194f55e2acefd70ebd92a731763"
            },
            "javapackage": "org.openbravo.retail.copystore.excel"
        },
        {
            "method": "git",
            "params": {
                "url": "https://gitlab.com/openbravo/product/pmods/org.openbravo.retail.copystore.giftcards",
                "ver": "2aa3f0a5186047f2cd1d89e2a1670e8bb5ec8a79"
            },
            "javapackage": "org.openbravo.retail.copystore.giftcards"
        },
        {
            "method": "git",
            "params": {
                "url": "https://gitlab.com/openbravo/product/pmods/org.openbravo.retail.complementary",
                "ver": "aa30a3a20126d2f74277626aeb7c0d88b86e0d80"
            },
            "javapackage": "org.openbravo.retail.complementary"
        },
        {
            "method": "git",
            "params": {
                "url": "https://gitlab.com/openbravo/product/pmods/org.openbravo.retail.multiupc",
                "ver": "47ad4b89f3123ecb47f2efdf20a6f1f5e2040b50"
            },
            "javapackage": "org.openbravo.retail.multiupc"
        },
        {
            "method": "git",
            "params": {
                "url": "https://gitlab.com/openbravo/product/pmods/org.openbravo.retail.discounts.combo",
                "ver": "b98152e637a00e41edfb65e968e29b00e7bbad39"
            },
            "javapackage": "org.openbravo.retail.discounts.combo"
        },
        {
            "method": "git",
            "params": {
                "url": "https://gitlab.com/openbravo/product/pmods/org.openbravo.retail.taxexempt",
                "ver": "76406dac7d61fac06651279fed674d1b2809cb76"
            },
            "javapackage": "org.openbravo.retail.taxexempt"
        },
        {
            "method": "git",
            "params": {
                "url": "https://gitlab.com/openbravo/product/pmods/org.openbravo.retail.stockvalidation",
                "ver": "fa948c311ffa6e976ca1f182c56aef8ac96e74ad"
            },
            "javapackage": "org.openbravo.retail.stockvalidation"
        },
        {
            "method": "git",
            "params": {
                "url": "https://gitlab.com/openbravo/product/pmods/org.openbravo.retail.giftcards",
                "ver": "2498d2e02a7f119970b87ae95145e217381e2ca8"
            },
            "javapackage": "org.openbravo.retail.giftcards"
        },
        {
            "method": "git",
            "params": {
                "url": "https://gitlab.com/openbravo/product/pmods/org.openbravo.retail.stockcriteria",
                "ver": "95acc7af265c5830f9e73a80a2a3051101a0289c"
            },
            "javapackage": "org.openbravo.retail.stockcriteria"
        },
        {
            "method": "git",
            "params": {
                "url": "https://gitlab.com/openbravo/product/pmods/org.openbravo.retail.levelpricing",
                "ver": "09a37583fd3fe2472a43220c0b1bc00575942798"
            },
            "javapackage": "org.openbravo.retail.levelpricing"
        },
        {
            "method": "git",
            "params": {
                "url": "https://gitlab.com/openbravo/product/pmods/org.openbravo.retail.activediscountspopup",
                "ver": "2afb50a300ae54d05e6656d4d2a3ae7cb501e2e0"
            },
            "javapackage": "org.openbravo.retail.activediscountspopup"
        },
        {
            "method": "git",
            "params": {
                "url": "https://gitlab.com/openbravo/product/pmods/org.openbravo.retail.copybestsellers",
                "ver": "9089976280d3e3f9816d658b67d034acebe5eb77"
            },
            "javapackage": "org.openbravo.retail.copybestsellers"
        },
        {
            "method": "git",
            "params": {
                "url": "https://gitlab.com/openbravo/product/pmods/org.openbravo.retail.discounts.scaledprice",
                "ver": "ed2004f436d367eaa273e017e19f5a5d7ed5b208"
            },
            "javapackage": "org.openbravo.retail.discounts.scaledprice"
        },
        {
            "method": "git",
            "params": {
                "url": "https://gitlab.com/openbravo/product/pmods/org.openbravo.retail.bestsellers",
                "ver": "432fcaf86b9dd1f82b4a28161cfc0afced982a2c"
            },
            "javapackage": "org.openbravo.retail.bestsellers"
        },
        {
            "method": "git",
            "params": {
                "url": "https://gitlab.com/openbravo/product/pmods/org.openbravo.pricing.levelpricing",
                "ver": "9ae83b3f310e416ccb34d334698845fca277a52d"
            },
            "javapackage": "org.openbravo.pricing.levelpricing"
        },
        {
            "method": "git",
            "params": {
                "url": "https://gitlab.com/openbravo/product/pmods/org.openbravo.retail.showprodsk",
                "ver": "9769ed8b11d83b64c1c3033aca40ab803a3d060e"
            },
            "javapackage": "org.openbravo.retail.showprodsk"
        },
        {
            "method": "git",
            "params": {
                "url": "https://gitlab.com/openbravo/product/pmods/org.openbravo.retail.trainingmode",
                "ver": "3c6bffde58ecea971f78152e051aa2e8b3ac7fbf"
            },
            "javapackage": "org.openbravo.retail.trainingmode"
        },
        {
            "method": "git",
            "params": {
                "url": "https://gitlab.com/openbravo/product/pmods/org.openbravo.retail.printlast",
                "ver": "07f8e7c024634a64948c053f0078b980dc8176fb"
            },
            "javapackage": "org.openbravo.retail.printlast"
        },
        {
            "method": "git",
            "params": {
                "url": "https://gitlab.com/openbravo/product/pmods/org.openbravo.retail.sessions",
                "ver": "d6b8eb2be4cd28ed1a4c93a395e123b5880e1d8a"
            },
            "javapackage": "org.openbravo.retail.sessions"
        },
        {
            "method": "git",
            "params": {
                "url": "https://gitlab.com/openbravo/product/pmods/org.openbravo.retail.marginindicator",
                "ver": "da0515be816a38ffa90b31ed4fb497f84370d26f"
            },
            "javapackage": "org.openbravo.retail.marginindicator"
        },
        {
            "method": "git",
            "params": {
                "url": "https://gitlab.com/openbravo/product/pmods/org.openbravo.retail.productonthefly",
                "ver": "c17fb84201bf46d467dcc4d7eab82c00e20cc5ee"
            },
            "javapackage": "org.openbravo.retail.productonthefly"
        },
        {
            "method": "git",
            "params": {
                "url": "https://gitlab.com/openbravo/product/pmods/org.openbravo.retail.scanreceipt",
                "ver": "7d161171b573b1528442cf423e6c4747fa7a03ef"
            },
            "javapackage": "org.openbravo.retail.scanreceipt"
        },
        {
            "method": "git",
            "params": {
                "url": "https://gitlab.com/openbravo/product/pmods/org.openbravo.retail.digitalcoupons",
                "ver": "41adc6635e88f69469a24ad043576d47af067055"
            },
            "javapackage": "org.openbravo.retail.digitalcoupons"
        },
        {
            "method": "git",
            "params": {
                "url": "https://gitlab.com/openbravo/product/pmods/org.openbravo.retail.chequecadeau",
                "ver": "bf0d6cb11fa754b67f9be9b3c1aa4055c15ba09e"
            },
            "javapackage": "org.openbravo.retail.chequecadeau"
        },
        {
            "method": "git",
            "params": {
                "url": "https://gitlab.com/openbravo/product/pmods/org.openbravo.retail.selfcheckout",
                "ver": "1afead19743a16de12b7dfe1322ba6998e41274e"
            },
            "javapackage": "org.openbravo.retail.selfcheckout"
        },
        {
            "method": "git",
            "params": {
                "url": "https://gitlab.com/openbravo/product/pmods/org.openbravo.retail.fastbrowse",
                "ver": "90ae29750f8f59445c412b8d7a35eebb1fd13c40"
            },
            "javapackage": "org.openbravo.retail.fastbrowse"
        },
        {
            "method": "git",
            "params": {
                "url": "https://gitlab.com/openbravo/product/pmods/org.openbravo.retail.verystar",
                "ver": "5eb9ba211ee6bf611e1312bc73232f85ab8402e1"
            },
            "javapackage": "org.openbravo.retail.verystar"
        },
        {
            "method": "git",
            "params": {
                "url": "https://gitlab.com/openbravo/product/pmods/org.openbravo.retail.selfcheckout.verystar",
                "ver": "f0c2452f24b9c601db857b076e68df17bddfecc6"
            },
            "javapackage": "org.openbravo.retail.selfcheckout.verystar"
        },
        {
            "method": "git",
            "params": {
                "url": "https://gitlab.com/openbravo/product/pmods/org.openbravo.pricing.scalablelevelpricing",
                "ver": "98b97e39fb58cde8cd26f0b7b3661d41ad721a1a"
            },
            "javapackage": "org.openbravo.pricing.scalablelevelpricing"
        },
        {
            "method": "git",
            "params": {
                "url": "https://gitlab.com/openbravo/ci/modules/org.openbravo.certification.france.dev",
                "ver": "d88a357326b07409a92015baf5606f0b61382d93"
            },
            "javapackage": "org.openbravo.certification.france"
        },
        {
            "method": "git",
            "params": {
                "url": "https://gitlab.com/openbravo/ci/modules/org.openbravo.certification.france.testing",
                "ver": "1c7cb91d7033bffc2c8f290efe89b84835dda616"
            },
            "javapackage": "org.openbravo.certification.france.testing"
        },
        {
            "method": "git",
            "params": {
                "url": "https://gitlab.com/openbravo/product/pmods/org.openbravo.retail.contactinfoforproduct",
                "ver": "8d973e35a8ce26b07e288ac7ec1352633ca21a5d"
            },
            "javapackage": "org.openbravo.retail.contactinfoforproduct"
        },
        {
            "method": "git",
            "params": {
                "url": "https://gitlab.com/openbravo/product/pmods/org.openbravo.retail.multitaxcategory",
                "ver": "8c82186abd07e1a4890f57be871efb8a62c225d7"
            },
            "javapackage": "org.openbravo.retail.multitaxcategory"
        },
        {
            "method": "git",
            "params": {
                "url": "https://gitlab.com/openbravo/product/pmods/org.openbravo.retail.sumupprovider",
                "ver": "981730caefff8e8951816615279be7da40fb8663"
            },
            "javapackage": "org.openbravo.retail.sumupprovider"
        },
        {
            "method": "git",
            "params": {
                "url": "https://gitlab.com/openbravo/product/pmods/org.openbravo.retail.chasepaymentech",
                "ver": "f41b696ed6986f52662076741d2a6ef4d3078dc1"
            },
            "javapackage": "org.openbravo.retail.chasepaymentech"
        },
        {
            "method": "git",
            "params": {
                "url": "https://gitlab.com/openbravo/product/pmods/org.openbravo.retail.selfcheckout.chasepaymentech",
                "ver": "fe111245c1b962eac959f5732c6cfb2b2c041f90"
            },
            "javapackage": "org.openbravo.retail.selfcheckout.chasepaymentech"
        },
        {
            "method": "git",
            "params": {
                "url": "https://gitlab.com/openbravo/product/pmods/org.openbravo.retail.emailphoneicons",
                "ver": "d0902b3eedbe61d69d1efbebcd516e5e82b57e77"
            },
            "javapackage": "org.openbravo.retail.emailphoneicons"
        },
        {
            "method": "git",
            "params": {
                "url": "https://gitlab.com/openbravo/product/pmods/org.openbravo.retail.autobom",
                "ver": "70b2182a44d661a62c3ed20c8ce5b8fc98d0dd5e"
            },
            "javapackage": "org.openbravo.retail.autobom"
        },
        {
            "method": "git",
            "params": {
                "url": "https://gitlab.com/openbravo/product/pmods/org.openbravo.retail.forgotpassword",
                "ver": "f148198da67180a356809510b0bd7327cac9dbe1"
            },
            "javapackage": "org.openbravo.retail.forgotpassword"
        },
        {
            "method": "git",
            "params": {
                "url": "https://gitlab.com/openbravo/product/pmods/org.openbravo.service.integration.magento.core",
                "ver": "417cf761e4b976f74a8844d4c224018c316e9626"
            },
            "javapackage": "org.openbravo.service.integration.magento.core"
        },
        {
            "method": "git",
            "params": {
                "url": "https://gitlab.com/openbravo/product/pmods/org.openbravo.service.integration.magento.mappings",
                "ver": "88408f9e41641cf474468c1aeb20d6ce7c6778a0"
            },
            "javapackage": "org.openbravo.service.integration.magento.mappings"
        },
        {
            "method": "git",
            "params": {
                "url": "https://gitlab.com/openbravo/product/pmods/org.openbravo.retail.services.autoprice",
                "ver": "02a9562845c5b26bbf0ed3afc0fea6a7cfb822cc"
            },
            "javapackage": "org.openbravo.retail.services.autoprice"
        },
        {
            "method": "git",
            "params": {
                "url": "https://gitlab.com/openbravo/product/pmods/org.openbravo.loyalty.programs",
                "ver": "2c4c7065a232c0a4015c0e8d830ad857dec11fec"
            },
            "javapackage": "org.openbravo.loyalty.programs"
        },
        {
            "method": "git",
            "params": {
                "url": "https://gitlab.com/openbravo/product/pmods/org.openbravo.retail.loyalty.programs",
                "ver": "076531a670c184c6e6048eaa5029965d442e8dee"
            },
            "javapackage": "org.openbravo.retail.loyalty.programs"
        },
        {
            "method": "git",
            "params": {
                "url": "https://gitlab.com/openbravo/product/pmods/org.openbravo.loyalty.burn.coupon",
                "ver": "35792b8eea97d0b3e305af71fa56f17cbc94d702"
            },
            "javapackage": "org.openbravo.loyalty.burn.coupon"
        },
        {
            "method": "git",
            "params": {
                "url": "https://gitlab.com/openbravo/product/pmods/org.openbravo.retail.loyalty.burn.coupon",
                "ver": "67dd9c0555ce20e649a44cce5312b9753518914d"
            },
            "javapackage": "org.openbravo.retail.loyalty.burn.coupon"
        },
        {
            "method": "git",
            "params": {
                "url": "https://gitlab.com/openbravo/product/pmods/org.openbravo.loyalty.burn.expired",
                "ver": "ccc282b4e7a682e5e96bcb478329b7ca0261f06c"
            },
            "javapackage": "org.openbravo.loyalty.burn.expired"
        },
        {
            "method": "git",
            "params": {
                "url": "https://gitlab.com/openbravo/product/pmods/org.openbravo.loyalty.burn.giftcertificate",
                "ver": "942787916dd2b962d6b8abfadc24470da4b58cb2"
            },
            "javapackage": "org.openbravo.loyalty.burn.giftcertificate"
        },
        {
            "method": "git",
            "params": {
                "url": "https://gitlab.com/openbravo/product/pmods/org.openbravo.retail.loyalty.burn.giftcertificate",
                "ver": "5a8356ab2a3809c1df5c9fec4dd2bf9e00523fc2"
            },
            "javapackage": "org.openbravo.retail.loyalty.burn.giftcertificate"
        },
        {
            "method": "git",
            "params": {
                "url": "https://gitlab.com/openbravo/product/pmods/org.openbravo.loyalty.earn.buyxearny",
                "ver": "c84113386d566e1829659b322e3730c0b63d253d"
            },
            "javapackage": "org.openbravo.loyalty.earn.buyxearny"
        },
        {
            "method": "git",
            "params": {
                "url": "https://gitlab.com/openbravo/ci/modules/org.openbravo.retail.discounts.tests",
                "ver": "5bd8855695dfedccd9b58cd7cf04e4038448d7e0"
            },
            "javapackage": "org.openbravo.retail.discounts.tests"
        },
        {
            "method": "git",
            "params": {
                "url": "https://gitlab.com/openbravo/product/pmods/org.openbravo.retail.oms.orderconfirmation",
                "ver": "3ed0093965f309c1b7dad17f4ae22d96bc9cf0f5"
            },
            "javapackage": "org.openbravo.retail.oms.orderconfirmation"
        },
        {
            "method": "git",
            "params": {
                "url": "https://gitlab.com/openbravo/product/pmods/org.openbravo.oms.retail",
                "ver": "6701b9b078ca58563bfeaa96defcd14c357c5eb5"
            },
            "javapackage": "org.openbravo.oms.retail"
        },
        {
            "method": "git",
            "params": {
                "url": "https://gitlab.com/openbravo/product/pmods/org.openbravo.retail.api",
                "ver": "f40be029b60b74dbdd94ff8b6890df4c01d77a95"
            },
            "javapackage": "org.openbravo.retail.api"
        },
        {
            "method": "git",
            "params": {
                "url": "https://gitlab.com/openbravo/product/pmods/org.openbravo.retail.api.giftcards",
                "ver": "43ce5fe0ea042297477db0ea7f07c172a662f870"
            },
            "javapackage": "org.openbravo.retail.api.giftcards"
        },
        {
            "method": "git",
            "params": {
                "url": "https://gitlab.com/openbravo/product/pmods/org.openbravo.retail.api.multiupc",
                "ver": "f3afafae4a37148ce71c88af34bf389dceb7977e"
            },
            "javapackage": "org.openbravo.retail.api.multiupc"
        },
        {
            "method": "git",
            "params": {
                "url": "https://gitlab.com/openbravo/product/pmods/org.openbravo.retail.api.complementary",
                "ver": "2aadc5d1834b525a80e7508fe4e749c7ad0a7f34"
            },
            "javapackage": "org.openbravo.retail.api.complementary"
        },
        {
            "method": "git",
            "params": {
                "url": "https://gitlab.com/openbravo/product/mods/org.openbravo.retail.france.ecotax",
                "ver": "f69e8f0a59cd7ea7c93baf89508ecd591a60c9e0"
            },
            "javapackage": "org.openbravo.retail.france.ecotax"
        },
        {
            "method": "git",
            "params": {
                "url": "https://gitlab.com/openbravo/product/pmods/org.openbravo.retail.adyenprovider",
                "ver": "b421c37f20baa3fbf0946f3e33e1524bb6409b9e"
            },
            "javapackage": "org.openbravo.retail.adyenprovider"
        },
        {
            "method": "git",
            "params": {
                "url": "https://gitlab.com/openbravo/product/pmods/org.openbravo.retail.ingenicotsiprovider",
                "ver": "49dd4895b1c04dd3779c2c058cc36bd304369866"
            },
            "javapackage": "org.openbravo.retail.ingenicotsiprovider"
        },
        {
            "method": "git",
            "params": {
                "url": "https://gitlab.com/openbravo/product/pmods/org.openbravo.retail.rtprinter",
                "ver": "fafcdae6607dfeba9905d10e246f088abb93c2a2"
            },
            "javapackage": "org.openbravo.retail.rtprinter"
        },
        {
            "method": "git",
            "params": {
                "url": "https://gitlab.com/openbravo/product/pmods/org.openbravo.retail.asyncpayprovider",
                "ver": "f3c066861c9873d9db1def5e1b52498aedaa958e"
            },
            "javapackage": "org.openbravo.retail.asyncpayprovider"
        },
        {
            "method": "git",
            "params": {
                "url": "https://gitlab.com/openbravo/product/pmods/org.openbravo.retail.selfcheckout.asyncpayprovider",
                "ver": "ac17f6bb6d8b39477fade4a2b0bfe595e3003c6e"
            },
            "javapackage": "org.openbravo.retail.selfcheckout.asyncpayprovider"
        },
        {
            "method": "git",
            "params": {
                "url": "https://gitlab.com/openbravo/product/pmods/org.openbravo.retail.axisc3",
                "ver": "c7680b512148b2c5a78a1db0ad58a450d5ccb53a"
            },
            "javapackage": "org.openbravo.retail.axisc3"
        },
        {
            "method": "git",
            "params": {
                "url": "https://gitlab.com/openbravo/product/pmods/org.openbravo.retail.nexoprovider",
                "ver": "5439993ee78b1cdbe0554d416e1a4b9bdc70f294"
            },
            "javapackage": "org.openbravo.retail.nexoprovider"
        },
        {
            "method": "git",
            "params": {
                "url": "https://gitlab.com/openbravo/product/pmods/org.openbravo.retail.selfcheckout.nexoprovider",
                "ver": "dac84ff8ea71f20a44185b88a9bd81fd7fd30100"
            },
            "javapackage": "org.openbravo.retail.selfcheckout.nexoprovider"
        },
        {
            "method": "git",
            "params": {
                "url": "https://gitlab.com/openbravo/product/pmods/org.openbravo.retail.rtserver",
                "ver": "d9a147ab1b62a451c67ca4209d63a834e69c9933"
            },
            "javapackage": "org.openbravo.retail.rtserver"
        },
        {
            "method": "git",
            "params": {
                "url": "https://gitlab.com/openbravo/product/pmods/org.openbravo.retail.lotterycode",
                "ver": "0e2d1c16f756353b86dd1f62aca4bd5c416d662f"
            },
            "javapackage": "org.openbravo.retail.lotterycode"
        },
        {
            "method": "git",
            "params": {
                "url": "https://gitlab.com/openbravo/product/pmods/org.openbravo.retail.selfcheckout.lotterycode",
                "ver": "098709a023946243b74537e2dff1846584fc4d91"
            },
            "javapackage": "org.openbravo.retail.selfcheckout.lotterycode"
        },
        {
            "method": "git",
            "params": {
                "url": "https://gitlab.com/openbravo/product/pmods/org.openbravo.retail.selfcheckout.rtserver",
                "ver": "6db68df2b24580b281e0e2e64acd0069f28f6851"
            },
            "javapackage": "org.openbravo.retail.selfcheckout.rtserver"
        },
        {
            "method": "git",
            "params": {
                "url": "https://gitlab.com/openbravo/product/pmods/org.openbravo.retail.discounts.discountmatrixmanagement",
                "ver": "345bb4fc85a7fc336093fc2362178281a6a39b8e"
            },
            "javapackage": "org.openbravo.retail.discounts.discountmatrixmanagement"
        },
        {
            "method": "git",
            "params": {
                "url": "https://gitlab.com/openbravo/product/pmods/org.openbravo.retail.simpinvoicethreshold",
                "ver": "b1fc98b79ad62a2f7470839556759941164f09f7"
            },
            "javapackage": "org.openbravo.retail.simpinvoicethreshold"
        },
        {
            "method": "git",
            "params": {
                "url": "https://gitlab.com/openbravo/product/pmods/org.openbravo.retail.simpinvoicethreshold.pt_PT",
                "ver": "a5dc8e8173b67ef5153b7859b18bc5bfd63548e2"
            },
            "javapackage": "org.openbravo.retail.simpinvoicethreshold.pt_PT"
        },
        {
            "method": "git",
            "params": {
                "url": "https://gitlab.com/openbravo/product/pmods/org.openbravo.taxes",
                "ver": "6973c2f63a9bb9f0ce5c226518e6ea42c2c9cbd1"
            },
            "javapackage": "org.openbravo.taxes"
        },
        {
            "method": "git",
            "params": {
                "url": "https://gitlab.com/openbravo/ci/modules/org.openbravo.api.tests",
                "ver": "fe2845e93020020e5c569af631f8be43f6b8e1ea"
            },
            "javapackage": "org.openbravo.api.tests"
        }
    ],
    "deps": [
        {
            "method": "git",
            "params": {
                "url": "https://gitlab.com/openbravo/product/pmods/org.openbravo.retail.pack",
                "ver": "release/22Q2"
            },
            "javapackage": "org.openbravo.retail.pack"
        },
        {
            "method": "git",
            "params": {
                "url": "https://gitlab.com/openbravo/product/pmods/org.openbravo.retail.returns",
                "ver": "release/22Q2"
            },
            "javapackage": "org.openbravo.retail.returns"
        },
        {
            "method": "git",
            "params": {
                "url": "https://gitlab.com/openbravo/product/pmods/org.openbravo.retail.poshwmanager",
                "ver": "release/22Q2"
            },
            "javapackage": "org.openbravo.retail.poshwmanager"
        },
        {
            "method": "git",
            "params": {
                "url": "https://gitlab.com/openbravo/product/pmods/org.openbravo.mobile.core",
                "ver": "release/22Q2"
            },
            "javapackage": "org.openbravo.mobile.core"
        },
        {
            "method": "git",
            "params": {
                "url": "https://gitlab.com/openbravo/product/pmods/org.openbravo.retail.config",
                "ver": "release/22Q2"
            },
            "javapackage": "org.openbravo.retail.config"
        },
        {
            "method": "git",
            "params": {
                "url": "https://gitlab.com/openbravo/product/pmods/org.openbravo.retail.posterminal",
                "ver": "release/22Q2"
            },
            "javapackage": "org.openbravo.retail.posterminal"
        },
        {
            "method": "git",
            "params": {
                "url": "https://gitlab.com/openbravo/product/pmods/org.openbravo.retail.discounts",
                "ver": "release/22Q2"
            },
            "javapackage": "org.openbravo.retail.discounts"
        },
        {
            "method": "git",
            "params": {
                "url": "https://gitlab.com/openbravo/product/pmods/org.openbravo.financial.multitaxcategory",
                "ver": "b2706bf3839921965d42c8f7f3ab7353852ee0bf"
            },
            "javapackage": "org.openbravo.financial.multitaxcategory"
        },
        {
            "method": "git",
            "params": {
                "url": "https://gitlab.com/openbravo/product/pmods/org.openbravo.retail.servicesequence",
                "ver": "b73f6c2aa0655e8ad7e5bccb54271fb583a54331"
            },
            "javapackage": "org.openbravo.retail.servicesequence"
        },
        {
            "method": "git",
            "params": {
                "url": "https://gitlab.com/openbravo/ci/modules/org.openbravo.retail.testsampledata",
                "ver": "ecc8d194fa950ebc4d795d8ae78e5f12fd15bc58"
            },
            "javapackage": "org.openbravo.retail.testsampledata"
        },
        {
            "method": "git",
            "params": {
                "url": "https://gitlab.com/openbravo/product/pmods/org.openbravo.retail.productcost",
                "ver": "e4dc9c7c0dacd87ae8a71bbf9bb2e92ec8300c21"
            },
            "javapackage": "org.openbravo.retail.productcost"
        },
        {
            "method": "git",
            "params": {
                "url": "https://gitlab.com/openbravo/ci/modules/org.openbravo.test.mobile.sampledata",
                "ver": "6ae26595dd9d5bf60307b7cfd441a47afec618e6"
            },
            "javapackage": "org.openbravo.test.mobile.sampledata"
        },
        {
            "method": "git",
            "params": {
                "url": "https://gitlab.com/openbravo/product/mods/org.openbravo.module.languagelocalname",
                "ver": "2a13a60024ed7620526de0709257251e809395ea"
            },
            "javapackage": "org.openbravo.module.languagelocalname"
        },
        {
            "method": "git",
            "params": {
                "url": "https://gitlab.com/openbravo/product/pmods/org.openbravo.warehouse.advancedwarehouseoperations",
                "ver": "844e1a8e024fa6cdeb9a5a05e97e51653eb09d0c"
            },
            "javapackage": "org.openbravo.warehouse.advancedwarehouseoperations"
        },
        {
            "method": "git",
            "params": {
                "url": "https://gitlab.com/openbravo/product/pmods/org.openbravo.warehouse.advancedwarehouseoperations.printing.bartender",
                "ver": "9729c2ad28edf95e70a69779c58cf875c15a75b2"
            },
            "javapackage": "org.openbravo.warehouse.advancedwarehouseoperations.printing.bartender"
        },
        {
            "method": "git",
            "params": {
                "url": "https://gitlab.com/openbravo/product/pmods/org.openbravo.warehouse.advancedwarehouseoperations.template",
                "ver": "cb0042247753c7d673c9f859924c626073ccd3f4"
            },
            "javapackage": "org.openbravo.warehouse.advancedwarehouseoperations.template"
        },
        {
            "method": "git",
            "params": {
                "url": "https://gitlab.com/openbravo/ci/modules/org.openbravo.warehouse.advancedwarehouseoperations.sampledata",
                "ver": "97af80fc0df1ce3411ecdbd66d30bb814bfbf5a8"
            },
            "javapackage": "org.openbravo.warehouse.advancedwarehouseoperations.sampledata"
        },
        {
            "method": "git",
            "params": {
                "url": "https://gitlab.com/openbravo/product/mods/org.openbravo.distributionorder",
                "ver": "04e07f0b8923d05e7f8b3151565ee7715fce37df"
            },
            "javapackage": "org.openbravo.distributionorder"
        },
        {
            "method": "git",
            "params": {
                "url": "https://gitlab.com/openbravo/product/pmods/org.openbravo.warehouse.advancedwarehouseoperations.distributionorders",
                "ver": "2bda4a6c6accbebba0f5cd17b33c4fe733bbbfe3"
            },
            "javapackage": "org.openbravo.warehouse.advancedwarehouseoperations.distributionorders"
        },
        {
            "method": "git",
            "params": {
                "url": "https://gitlab.com/openbravo/product/pmods/org.openbravo.warehouse.advancedwarehouseoperations.retailconnector",
                "ver": "13e2bc46d8fe52211800daed67d5050945aaffa1"
            },
            "javapackage": "org.openbravo.warehouse.advancedwarehouseoperations.retailconnector"
        },
        {
            "method": "git",
            "params": {
                "url": "https://gitlab.com/openbravo/product/mods/org.openbravo.utility.opencsv",
                "ver": "2d9c6331e4f88d33892779946e771391ce1e4ed2"
            },
            "javapackage": "org.openbravo.utility.opencsv"
        },
        {
            "method": "git",
            "params": {
                "url": "https://gitlab.com/openbravo/product/pmods/org.openbravo.externaldata.integration",
                "ver": "8cf70261ba22967accac9c430dae461407b76815"
            },
            "javapackage": "org.openbravo.externaldata.integration"
        },
        {
            "method": "git",
            "params": {
                "url": "https://gitlab.com/openbravo/product/pmods/org.openbravo.service.external.integration",
                "ver": "56f356b4b323c2bc40678df5637369f6a473b87f"
            },
            "javapackage": "org.openbravo.service.external.integration"
        },
        {
            "method": "git",
            "params": {
                "url": "https://gitlab.com/openbravo/product/pmods/org.openbravo.retail.orderpreparation",
                "ver": "b6549221131d052250f6af36ca0f4060acc65d80"
            },
            "javapackage": "org.openbravo.retail.orderpreparation"
        },
        {
            "method": "git",
            "params": {
                "url": "https://gitlab.com/openbravo/product/pmods/org.openbravo.retail.camerabarcodescanner",
                "ver": "9b379ecd652dce1df10489769d6c7ecd5ea175de"
            },
            "javapackage": "org.openbravo.retail.camerabarcodescanner"
        },
        {
            "method": "git",
            "params": {
                "url": "https://gitlab.com/openbravo/product/pmods/org.openbravo.retail.camerabarcodescanner.posterminal",
                "ver": "937544bc2c60a96dcd9ee5acd683187f2ab6b515"
            },
            "javapackage": "org.openbravo.retail.camerabarcodescanner.posterminal"
        },
        {
            "method": "git",
            "params": {
                "url": "https://gitlab.com/openbravo/product/pmods/org.openbravo.retail.productrelevance",
                "ver": "3d8c6d7af3dd7b3d0ceeafd15c771039601d7875"
            },
            "javapackage": "org.openbravo.retail.productrelevance"
        },
        {
            "method": "git",
            "params": {
                "url": "https://gitlab.com/openbravo/product/pmods/org.openbravo.module.resources",
                "ver": "da99d807fc72fc4cbd67d5e910dca427a5d1779b"
            },
            "javapackage": "org.openbravo.module.resources"
        },
        {
            "method": "git",
            "params": {
                "url": "https://gitlab.com/openbravo/product/mods/org.openbravo.module.productbomversion",
                "ver": "a55a06ea4a67e72519e40e7999f7366463d3296e"
            },
            "javapackage": "org.openbravo.module.productbomversion"
        },
        {
            "method": "git",
            "params": {
                "url": "https://gitlab.com/openbravo/product/mods/org.openbravo.module.productbomversion.template",
                "ver": "360cefd36f7df88b51cc41ab52250eebb80f5c85"
            },
            "javapackage": "org.openbravo.module.productbomversion.template"
        },
        {
            "method": "git",
            "params": {
                "url": "https://gitlab.com/openbravo/product/pmods/org.openbravo.portal.member.roles",
                "ver": "7ce67dbb7ab476aebd3b3ddc05a70eaeb232992b"
            },
            "javapackage": "org.openbravo.portal.member.roles"
        },
        {
            "method": "git",
            "params": {
                "url": "https://gitlab.com/openbravo/product/pmods/org.openbravo.retail.productranking",
                "ver": "828cd3f433054698d1060d41d685f0b6108d00e0"
            },
            "javapackage": "org.openbravo.retail.productranking"
        },
        {
            "method": "git",
            "params": {
                "url": "https://gitlab.com/openbravo/product/pmods/org.openbravo.retail.paymentmethodadditionalinfo",
                "ver": "bff84362939e7e0d10a8028bd8246f81fbdb6220"
            },
            "javapackage": "org.openbravo.retail.paymentmethodadditionalinfo"
        },
        {
            "method": "git",
            "params": {
                "url": "https://gitlab.com/openbravo/product/mods/org.openbravo.module.cashvat",
                "ver": "61e266476c68476e6c85c3eabbb18996bc764fee"
            },
            "javapackage": "org.openbravo.module.cashvat"
        },
        {
            "method": "git",
            "params": {
                "url": "https://gitlab.com/openbravo/product/pmods/org.openbravo.api.ticket",
                "ver": "774d9d0618ca6da6d902a3fb33e1da95e0d251c0"
            },
            "javapackage": "org.openbravo.api.ticket"
        },
        {
            "method": "git",
            "params": {
                "url": "https://gitlab.com/openbravo/product/pmods/org.openbravo.service.jsexecutor",
                "ver": "12b8e36f932dfb5e844b5d07824d29aa3c9e6878"
            },
            "javapackage": "org.openbravo.service.jsexecutor"
        },
        {
            "method": "git",
            "params": {
                "url": "https://gitlab.com/openbravo/product/pmods/org.openbravo.api",
                "ver": "14567d3a1233c84dfe37b9c06e02893f65fcdcbc"
            },
            "javapackage": "org.openbravo.api"
        },
        {
            "method": "git",
            "params": {
                "url": "https://gitlab.com/openbravo/product/pmods/org.openbravo.service.openapi",
                "ver": "dfafd686fde3e7f5ed7bcbb10940c7e647ee99ca"
            },
            "javapackage": "org.openbravo.service.openapi"
        },
        {
            "method": "git",
            "params": {
                "url": "https://gitlab.com/openbravo/product/pmods/org.openbravo.discounts",
                "ver": "05715e770d831714e45767ef68720dec04a71104"
            },
            "javapackage": "org.openbravo.discounts"
        },
        {
            "method": "git",
            "params": {
                "url": "https://gitlab.com/openbravo/product/pmods/org.openbravo.oms",
                "ver": "c05e4426104e81a22c564f80e7c1c4de14efb719"
            },
            "javapackage": "org.openbravo.oms"
        },
        {
            "method": "git",
            "params": {
                "url": "https://gitlab.com/openbravo/product/pmods/org.openbravo.warehouse.advancedwarehouseoperations.batchwavepicking",
                "ver": "aca8c31fbff544ea7efdadaff982a1a69d2aad41"
            },
            "javapackage": "org.openbravo.warehouse.advancedwarehouseoperations.batchwavepicking"
        },
        {
            "method": "git",
            "params": {
                "url": "https://gitlab.com/openbravo/product/pmods/org.openbravo.warehouse.advancedwarehouseoperations.operatorloadbalancing",
                "ver": "6a426c13e2e1cef4eecd97102e88a7dc2db572fe"
            },
            "javapackage": "org.openbravo.warehouse.advancedwarehouseoperations.operatorloadbalancing"
        },
        {
            "method": "git",
            "params": {
                "url": "https://gitlab.com/openbravo/product/pmods/org.openbravo.warehouse.advancedwarehouseoperations.selfreplenishment",
                "ver": "1dd9b8672cc4092d58460d9b4cda2c0ccdb81082"
            },
            "javapackage": "org.openbravo.warehouse.advancedwarehouseoperations.selfreplenishment"
        },
        {
            "method": "git",
            "params": {
                "url": "https://gitlab.com/openbravo/product/pmods/org.openbravo.warehouse.advancedwarehouseoperations.edl",
                "ver": "4088cc83cbbaf36876b086ca4e30afb7610ec277"
            },
            "javapackage": "org.openbravo.warehouse.advancedwarehouseoperations.edl"
        },
        {
            "method": "git",
            "params": {
                "url": "https://gitlab.com/openbravo/product/mods/org.openbravo.france.ecotax",
                "ver": "c0ad2f0594c2b3a53c64705c7e62103108b043c5"
            },
            "javapackage": "org.openbravo.france.ecotax"
        },
        {
            "method": "git",
            "params": {
                "url": "https://gitlab.com/openbravo/ci/modules/org.openbravo.retail.samplebpintegration",
                "ver": "ddf1e62d995685d8ff42361d4f549dfa5ca721cd"
            },
            "javapackage": "org.openbravo.retail.samplebpintegration"
        }
    ]
}